%YAML 1.1
%TAG !u! tag:unity3d.com,2011:
--- !u!29 &1
OcclusionCullingSettings:
  m_ObjectHideFlags: 0
  serializedVersion: 2
  m_OcclusionBakeSettings:
    smallestOccluder: 5
    smallestHole: 0.25
    backfaceThreshold: 100
  m_SceneGUID: 00000000000000000000000000000000
  m_OcclusionCullingData: {fileID: 0}
--- !u!104 &2
RenderSettings:
  m_ObjectHideFlags: 0
  serializedVersion: 9
  m_Fog: 0
  m_FogColor: {r: 0.5, g: 0.5, b: 0.5, a: 1}
  m_FogMode: 3
  m_FogDensity: 0.01
  m_LinearFogStart: 0
  m_LinearFogEnd: 300
  m_AmbientSkyColor: {r: 0.47794116, g: 0.46739835, b: 0.46739835, a: 1}
  m_AmbientEquatorColor: {r: 0.47794116, g: 0.46739835, b: 0.46739835, a: 1}
  m_AmbientGroundColor: {r: 0.47794116, g: 0.46739835, b: 0.46739835, a: 1}
  m_AmbientIntensity: 1
  m_AmbientMode: 3
  m_SubtractiveShadowColor: {r: 0.42, g: 0.478, b: 0.627, a: 1}
  m_SkyboxMaterial: {fileID: 0}
  m_HaloStrength: 0.5
  m_FlareStrength: 1
  m_FlareFadeSpeed: 3
  m_HaloTexture: {fileID: 0}
  m_SpotCookie: {fileID: 10001, guid: 0000000000000000e000000000000000, type: 0}
  m_DefaultReflectionMode: 0
  m_DefaultReflectionResolution: 128
  m_ReflectionBounces: 1
  m_ReflectionIntensity: 1
  m_CustomReflection: {fileID: 0}
  m_Sun: {fileID: 0}
  m_IndirectSpecularColor: {r: 0, g: 0, b: 0, a: 1}
  m_UseRadianceAmbientProbe: 0
--- !u!157 &4
LightmapSettings:
  m_ObjectHideFlags: 0
  serializedVersion: 11
  m_GIWorkflowMode: 1
  m_GISettings:
    serializedVersion: 2
    m_BounceScale: 1
    m_IndirectOutputScale: 1
    m_AlbedoBoost: 1
    m_TemporalCoherenceThreshold: 1
    m_EnvironmentLightingMode: 0
    m_EnableBakedLightmaps: 1
    m_EnableRealtimeLightmaps: 0
  m_LightmapEditorSettings:
    serializedVersion: 10
    m_Resolution: 1
    m_BakeResolution: 50
    m_AtlasSize: 1024
    m_AO: 1
    m_AOMaxDistance: 1
    m_CompAOExponent: 1
    m_CompAOExponentDirect: 0
    m_Padding: 2
    m_LightmapParameters: {fileID: 0}
    m_LightmapsBakeMode: 1
    m_TextureCompression: 0
    m_FinalGather: 0
    m_FinalGatherFiltering: 1
    m_FinalGatherRayCount: 256
    m_ReflectionCompression: 2
    m_MixedBakeMode: 1
    m_BakeBackend: 0
    m_PVRSampling: 1
    m_PVRDirectSampleCount: 32
    m_PVRSampleCount: 500
    m_PVRBounces: 2
    m_PVRFilterTypeDirect: 0
    m_PVRFilterTypeIndirect: 0
    m_PVRFilterTypeAO: 0
    m_PVRFilteringMode: 0
    m_PVRCulling: 1
    m_PVRFilteringGaussRadiusDirect: 1
    m_PVRFilteringGaussRadiusIndirect: 5
    m_PVRFilteringGaussRadiusAO: 2
    m_PVRFilteringAtrousPositionSigmaDirect: 0.5
    m_PVRFilteringAtrousPositionSigmaIndirect: 2
    m_PVRFilteringAtrousPositionSigmaAO: 1
    m_ShowResolutionOverlay: 1
  m_LightingDataAsset: {fileID: 0}
  m_UseShadowmask: 0
--- !u!196 &5
NavMeshSettings:
  serializedVersion: 2
  m_ObjectHideFlags: 0
  m_BuildSettings:
    serializedVersion: 2
    agentTypeID: 0
    agentRadius: 0.5
    agentHeight: 2
    agentSlope: 45
    agentClimb: 0.4
    ledgeDropHeight: 0
    maxJumpAcrossDistance: 0
    minRegionArea: 2
    manualCellSize: 0
    cellSize: 0.16666666
    manualTileSize: 0
    tileSize: 256
    accuratePlacement: 0
    debug:
      m_Flags: 0
  m_NavMeshData: {fileID: 0}
--- !u!1 &20796285
GameObject:
  m_ObjectHideFlags: 0
  m_PrefabParentObject: {fileID: 100080, guid: 8141a1e3f5562ba4d910d6c02d5d213c, type: 3}
  m_PrefabInternal: {fileID: 972882073}
  serializedVersion: 5
  m_Component:
  - component: {fileID: 20796286}
  - component: {fileID: 20796287}
  m_Layer: 0
  m_Name: mesh_R_Spine
  m_TagString: Untagged
  m_Icon: {fileID: 0}
  m_NavMeshLayer: 0
  m_StaticEditorFlags: 0
  m_IsActive: 1
--- !u!4 &20796286
Transform:
  m_ObjectHideFlags: 0
  m_PrefabParentObject: {fileID: 400080, guid: 8141a1e3f5562ba4d910d6c02d5d213c, type: 3}
  m_PrefabInternal: {fileID: 972882073}
  m_GameObject: {fileID: 20796285}
  m_LocalRotation: {x: -0.7071068, y: 0, z: -0, w: 0.7071068}
  m_LocalPosition: {x: -0, y: 0, z: 0}
  m_LocalScale: {x: 1, y: 1, z: 1}
  m_Children: []
  m_Father: {fileID: 1237958033}
  m_RootOrder: 14
  m_LocalEulerAnglesHint: {x: 0, y: 0, z: 0}
--- !u!137 &20796287
SkinnedMeshRenderer:
  m_ObjectHideFlags: 0
  m_PrefabParentObject: {fileID: 13700026, guid: 8141a1e3f5562ba4d910d6c02d5d213c,
    type: 3}
  m_PrefabInternal: {fileID: 972882073}
  m_GameObject: {fileID: 20796285}
  m_Enabled: 1
  m_CastShadows: 1
  m_ReceiveShadows: 1
  m_DynamicOccludee: 1
  m_MotionVectors: 1
  m_LightProbeUsage: 1
  m_ReflectionProbeUsage: 1
  m_RenderingLayerMask: 4294967295
  m_Materials:
  - {fileID: 2100000, guid: 4bd180b051e2ca54ebfe82cf04ec20a6, type: 2}
  m_StaticBatchInfo:
    firstSubMesh: 0
    subMeshCount: 0
  m_StaticBatchRoot: {fileID: 0}
  m_ProbeAnchor: {fileID: 0}
  m_LightProbeVolumeOverride: {fileID: 0}
  m_ScaleInLightmap: 1
  m_PreserveUVs: 0
  m_IgnoreNormalsForChartDetection: 0
  m_ImportantGI: 0
  m_StitchLightmapSeams: 0
  m_SelectedEditorRenderState: 3
  m_MinimumChartSize: 4
  m_AutoUVMaxDistance: 0.5
  m_AutoUVMaxAngle: 89
  m_LightmapParameters: {fileID: 0}
  m_SortingLayerID: 0
  m_SortingLayer: 0
  m_SortingOrder: 0
  serializedVersion: 2
  m_Quality: 0
  m_UpdateWhenOffscreen: 0
  m_SkinnedMotionVectors: 1
  m_Mesh: {fileID: 4300024, guid: 8141a1e3f5562ba4d910d6c02d5d213c, type: 3}
  m_Bones:
  - {fileID: 1286607728}
  - {fileID: 25580797}
  - {fileID: 1842628432}
  - {fileID: 930344351}
  - {fileID: 803149524}
  - {fileID: 677642972}
  - {fileID: 1886528290}
  - {fileID: 1548831763}
  - {fileID: 1794462609}
  m_BlendShapeWeights: []
  m_RootBone: {fileID: 1794462609}
  m_AABB:
    m_Center: {x: -0.023776203, y: -0.044877365, z: 0.29276273}
    m_Extent: {x: 0.18665159, y: 0.13616593, z: 0.22837368}
  m_DirtyAABB: 0
--- !u!1 &25580796
GameObject:
  m_ObjectHideFlags: 0
  m_PrefabParentObject: {fileID: 100050, guid: 8141a1e3f5562ba4d910d6c02d5d213c, type: 3}
  m_PrefabInternal: {fileID: 972882073}
  serializedVersion: 5
  m_Component:
  - component: {fileID: 25580797}
  m_Layer: 0
  m_Name: Bip01 Spine1
  m_TagString: Untagged
  m_Icon: {fileID: 0}
  m_NavMeshLayer: 0
  m_StaticEditorFlags: 0
  m_IsActive: 1
--- !u!4 &25580797
Transform:
  m_ObjectHideFlags: 0
  m_PrefabParentObject: {fileID: 400050, guid: 8141a1e3f5562ba4d910d6c02d5d213c, type: 3}
  m_PrefabInternal: {fileID: 972882073}
  m_GameObject: {fileID: 25580796}
  m_LocalRotation: {x: 0.015112828, y: -0.0008080067, z: -0.13970917, w: 0.9900769}
  m_LocalPosition: {x: -0.26960564, y: -0.0001932907, z: -0.0000060606003}
  m_LocalScale: {x: 1.0000001, y: 1, z: 1}
  m_Children:
  - {fileID: 1989891757}
  m_Father: {fileID: 1286607728}
  m_RootOrder: 2
  m_LocalEulerAnglesHint: {x: 0, y: 0, z: 0}
--- !u!1 &127540367
GameObject:
  m_ObjectHideFlags: 0
  m_PrefabParentObject: {fileID: 100034, guid: 8141a1e3f5562ba4d910d6c02d5d213c, type: 3}
  m_PrefabInternal: {fileID: 972882073}
  serializedVersion: 5
  m_Component:
  - component: {fileID: 127540368}
  m_Layer: 0
  m_Name: Bip01 R Foot
  m_TagString: Untagged
  m_Icon: {fileID: 0}
  m_NavMeshLayer: 0
  m_StaticEditorFlags: 0
  m_IsActive: 1
--- !u!4 &127540368
Transform:
  m_ObjectHideFlags: 0
  m_PrefabParentObject: {fileID: 400034, guid: 8141a1e3f5562ba4d910d6c02d5d213c, type: 3}
  m_PrefabInternal: {fileID: 972882073}
  m_GameObject: {fileID: 127540367}
  m_LocalRotation: {x: 0.068470426, y: -0.15534747, z: -0.2534272, w: 0.95234114}
  m_LocalPosition: {x: -0.40058413, y: 0.000000038146972, z: 0}
  m_LocalScale: {x: 1, y: 1, z: 1}
  m_Children:
  - {fileID: 2132193292}
  m_Father: {fileID: 767186643}
  m_RootOrder: 0
  m_LocalEulerAnglesHint: {x: 0, y: 0, z: 0}
--- !u!1 &286491091
GameObject:
  m_ObjectHideFlags: 0
  m_PrefabParentObject: {fileID: 100074, guid: 8141a1e3f5562ba4d910d6c02d5d213c, type: 3}
  m_PrefabInternal: {fileID: 972882073}
  serializedVersion: 5
  m_Component:
  - component: {fileID: 286491092}
  - component: {fileID: 286491093}
  m_Layer: 0
  m_Name: mesh_R_Forearm
  m_TagString: Untagged
  m_Icon: {fileID: 0}
  m_NavMeshLayer: 0
  m_StaticEditorFlags: 0
  m_IsActive: 1
--- !u!4 &286491092
Transform:
  m_ObjectHideFlags: 0
  m_PrefabParentObject: {fileID: 400074, guid: 8141a1e3f5562ba4d910d6c02d5d213c, type: 3}
  m_PrefabInternal: {fileID: 972882073}
  m_GameObject: {fileID: 286491091}
  m_LocalRotation: {x: -0.7071068, y: 0, z: -0, w: 0.7071068}
  m_LocalPosition: {x: -0, y: 0, z: 0}
  m_LocalScale: {x: 1, y: 1, z: 1}
  m_Children: []
  m_Father: {fileID: 1237958033}
  m_RootOrder: 11
  m_LocalEulerAnglesHint: {x: 0, y: 0, z: 0}
--- !u!137 &286491093
SkinnedMeshRenderer:
  m_ObjectHideFlags: 0
  m_PrefabParentObject: {fileID: 13700020, guid: 8141a1e3f5562ba4d910d6c02d5d213c,
    type: 3}
  m_PrefabInternal: {fileID: 972882073}
  m_GameObject: {fileID: 286491091}
  m_Enabled: 1
  m_CastShadows: 1
  m_ReceiveShadows: 1
  m_DynamicOccludee: 1
  m_MotionVectors: 1
  m_LightProbeUsage: 1
  m_ReflectionProbeUsage: 1
  m_RenderingLayerMask: 4294967295
  m_Materials:
  - {fileID: 2100000, guid: 4bd180b051e2ca54ebfe82cf04ec20a6, type: 2}
  m_StaticBatchInfo:
    firstSubMesh: 0
    subMeshCount: 0
  m_StaticBatchRoot: {fileID: 0}
  m_ProbeAnchor: {fileID: 0}
  m_LightProbeVolumeOverride: {fileID: 0}
  m_ScaleInLightmap: 1
  m_PreserveUVs: 0
  m_IgnoreNormalsForChartDetection: 0
  m_ImportantGI: 0
  m_StitchLightmapSeams: 0
  m_SelectedEditorRenderState: 3
  m_MinimumChartSize: 4
  m_AutoUVMaxDistance: 0.5
  m_AutoUVMaxAngle: 89
  m_LightmapParameters: {fileID: 0}
  m_SortingLayerID: 0
  m_SortingLayer: 0
  m_SortingOrder: 0
  serializedVersion: 2
  m_Quality: 0
  m_UpdateWhenOffscreen: 0
  m_SkinnedMotionVectors: 1
  m_Mesh: {fileID: 4300030, guid: 8141a1e3f5562ba4d910d6c02d5d213c, type: 3}
  m_Bones:
  - {fileID: 1826951993}
  - {fileID: 1548831763}
  - {fileID: 1286607728}
  - {fileID: 25580797}
  - {fileID: 1648062772}
  m_BlendShapeWeights: []
  m_RootBone: {fileID: 1286607728}
  m_AABB:
    m_Center: {x: -0.2253125, y: 0.11278516, z: -0.3801301}
    m_Extent: {x: 0.15463486, y: 0.20046663, z: 0.1567877}
  m_DirtyAABB: 0
--- !u!1 &530205319
GameObject:
  m_ObjectHideFlags: 0
  m_PrefabParentObject: {fileID: 100078, guid: 8141a1e3f5562ba4d910d6c02d5d213c, type: 3}
  m_PrefabInternal: {fileID: 972882073}
  serializedVersion: 5
  m_Component:
  - component: {fileID: 530205320}
  - component: {fileID: 530205321}
  m_Layer: 0
  m_Name: mesh_R_Pelvis
  m_TagString: Untagged
  m_Icon: {fileID: 0}
  m_NavMeshLayer: 0
  m_StaticEditorFlags: 0
  m_IsActive: 1
--- !u!4 &530205320
Transform:
  m_ObjectHideFlags: 0
  m_PrefabParentObject: {fileID: 400078, guid: 8141a1e3f5562ba4d910d6c02d5d213c, type: 3}
  m_PrefabInternal: {fileID: 972882073}
  m_GameObject: {fileID: 530205319}
  m_LocalRotation: {x: -0.7071068, y: 0, z: -0, w: 0.7071068}
  m_LocalPosition: {x: -0, y: 0, z: 0}
  m_LocalScale: {x: 1, y: 1, z: 1}
  m_Children: []
  m_Father: {fileID: 1237958033}
  m_RootOrder: 13
  m_LocalEulerAnglesHint: {x: 0, y: 0, z: 0}
--- !u!137 &530205321
SkinnedMeshRenderer:
  m_ObjectHideFlags: 0
  m_PrefabParentObject: {fileID: 13700024, guid: 8141a1e3f5562ba4d910d6c02d5d213c,
    type: 3}
  m_PrefabInternal: {fileID: 972882073}
  m_GameObject: {fileID: 530205319}
  m_Enabled: 1
  m_CastShadows: 1
  m_ReceiveShadows: 1
  m_DynamicOccludee: 1
  m_MotionVectors: 1
  m_LightProbeUsage: 1
  m_ReflectionProbeUsage: 1
  m_RenderingLayerMask: 4294967295
  m_Materials:
  - {fileID: 2100000, guid: 4bd180b051e2ca54ebfe82cf04ec20a6, type: 2}
  m_StaticBatchInfo:
    firstSubMesh: 0
    subMeshCount: 0
  m_StaticBatchRoot: {fileID: 0}
  m_ProbeAnchor: {fileID: 0}
  m_LightProbeVolumeOverride: {fileID: 0}
  m_ScaleInLightmap: 1
  m_PreserveUVs: 0
  m_IgnoreNormalsForChartDetection: 0
  m_ImportantGI: 0
  m_StitchLightmapSeams: 0
  m_SelectedEditorRenderState: 3
  m_MinimumChartSize: 4
  m_AutoUVMaxDistance: 0.5
  m_AutoUVMaxAngle: 89
  m_LightmapParameters: {fileID: 0}
  m_SortingLayerID: 0
  m_SortingLayer: 0
  m_SortingOrder: 0
  serializedVersion: 2
  m_Quality: 0
  m_UpdateWhenOffscreen: 0
  m_SkinnedMotionVectors: 1
  m_Mesh: {fileID: 4300014, guid: 8141a1e3f5562ba4d910d6c02d5d213c, type: 3}
  m_Bones:
  - {fileID: 803149524}
  - {fileID: 1842628432}
  - {fileID: 930344351}
  - {fileID: 1286607728}
  - {fileID: 1794462609}
  - {fileID: 25580797}
  m_BlendShapeWeights: []
  m_RootBone: {fileID: 1794462609}
  m_AABB:
    m_Center: {x: -0.005396992, y: -0.080618665, z: 0.015414529}
    m_Extent: {x: 0.13446252, y: 0.11361548, z: 0.15799898}
  m_DirtyAABB: 0
--- !u!1 &546541880
GameObject:
  m_ObjectHideFlags: 0
  m_PrefabParentObject: {fileID: 100016, guid: 8141a1e3f5562ba4d910d6c02d5d213c, type: 3}
  m_PrefabInternal: {fileID: 972882073}
  serializedVersion: 5
  m_Component:
  - component: {fileID: 546541881}
  m_Layer: 0
  m_Name: Bip01 L Hand
  m_TagString: Untagged
  m_Icon: {fileID: 0}
  m_NavMeshLayer: 0
  m_StaticEditorFlags: 0
  m_IsActive: 1
--- !u!4 &546541881
Transform:
  m_ObjectHideFlags: 0
  m_PrefabParentObject: {fileID: 400016, guid: 8141a1e3f5562ba4d910d6c02d5d213c, type: 3}
  m_PrefabInternal: {fileID: 972882073}
  m_GameObject: {fileID: 546541880}
  m_LocalRotation: {x: -0.42405185, y: -0.08525683, z: -0.29964215, w: 0.8503681}
  m_LocalPosition: {x: -0.24034995, y: 0, z: 0}
  m_LocalScale: {x: 1, y: 1, z: 1}
  m_Children: []
  m_Father: {fileID: 1102786649}
  m_RootOrder: 0
  m_LocalEulerAnglesHint: {x: 0, y: 0, z: 0}
--- !u!1 &565330580
GameObject:
  m_ObjectHideFlags: 0
  m_PrefabParentObject: {fileID: 0}
  m_PrefabInternal: {fileID: 0}
  serializedVersion: 5
  m_Component:
  - component: {fileID: 565330585}
  - component: {fileID: 565330584}
  - component: {fileID: 565330583}
  - component: {fileID: 565330582}
  - component: {fileID: 565330581}
  m_Layer: 0
  m_Name: Main Camera
  m_TagString: MainCamera
  m_Icon: {fileID: 0}
  m_NavMeshLayer: 0
  m_StaticEditorFlags: 0
  m_IsActive: 1
--- !u!81 &565330581
AudioListener:
  m_ObjectHideFlags: 0
  m_PrefabParentObject: {fileID: 0}
  m_PrefabInternal: {fileID: 0}
  m_GameObject: {fileID: 565330580}
  m_Enabled: 1
--- !u!124 &565330582
Behaviour:
  m_ObjectHideFlags: 0
  m_PrefabParentObject: {fileID: 0}
  m_PrefabInternal: {fileID: 0}
  m_GameObject: {fileID: 565330580}
  m_Enabled: 1
--- !u!92 &565330583
Behaviour:
  m_ObjectHideFlags: 0
  m_PrefabParentObject: {fileID: 0}
  m_PrefabInternal: {fileID: 0}
  m_GameObject: {fileID: 565330580}
  m_Enabled: 1
--- !u!20 &565330584
Camera:
  m_ObjectHideFlags: 0
  m_PrefabParentObject: {fileID: 0}
  m_PrefabInternal: {fileID: 0}
  m_GameObject: {fileID: 565330580}
  m_Enabled: 1
  serializedVersion: 2
  m_ClearFlags: 1
  m_BackGroundColor: {r: 0.23464534, g: 0.5147059, b: 0.45676228, a: 0.019607844}
  m_NormalizedViewPortRect:
    serializedVersion: 2
    x: 0
    y: 0
    width: 1
    height: 1
  near clip plane: 0.3
  far clip plane: 1000
  field of view: 60
  orthographic: 0
  orthographic size: 5
  m_Depth: -1
  m_CullingMask:
    serializedVersion: 2
    m_Bits: 4294967295
  m_RenderingPath: -1
  m_TargetTexture: {fileID: 0}
  m_TargetDisplay: 0
  m_TargetEye: 3
  m_HDR: 0
  m_AllowMSAA: 1
  m_AllowDynamicResolution: 0
  m_ForceIntoRT: 0
  m_OcclusionCulling: 1
  m_StereoConvergence: 10
  m_StereoSeparation: 0.022
--- !u!4 &565330585
Transform:
  m_ObjectHideFlags: 0
  m_PrefabParentObject: {fileID: 0}
  m_PrefabInternal: {fileID: 0}
  m_GameObject: {fileID: 565330580}
  m_LocalRotation: {x: 0, y: -0.9854835, z: 0, w: -0.1697713}
  m_LocalPosition: {x: 0.04495798, y: 1.3143227, z: -0.23086198}
  m_LocalScale: {x: 1, y: 1, z: 1}
  m_Children: []
  m_Father: {fileID: 0}
  m_RootOrder: 1
  m_LocalEulerAnglesHint: {x: 0, y: 0, z: 0}
--- !u!1 &628363967
GameObject:
  m_ObjectHideFlags: 0
  m_PrefabParentObject: {fileID: 100004, guid: 8141a1e3f5562ba4d910d6c02d5d213c, type: 3}
  m_PrefabInternal: {fileID: 972882073}
  serializedVersion: 5
  m_Component:
  - component: {fileID: 628363968}
  m_Layer: 0
  m_Name: Bip01 Head
  m_TagString: Untagged
  m_Icon: {fileID: 0}
  m_NavMeshLayer: 0
  m_StaticEditorFlags: 0
  m_IsActive: 1
--- !u!4 &628363968
Transform:
  m_ObjectHideFlags: 0
  m_PrefabParentObject: {fileID: 400004, guid: 8141a1e3f5562ba4d910d6c02d5d213c, type: 3}
  m_PrefabInternal: {fileID: 972882073}
  m_GameObject: {fileID: 628363967}
  m_LocalRotation: {x: -0.03940595, y: -0.055803154, z: 0.530347, w: 0.8450238}
  m_LocalPosition: {x: -0.12610061, y: 0, z: 0.0000000047683715}
  m_LocalScale: {x: 1, y: 1, z: 1.0000001}
  m_Children:
  - {fileID: 1680548439}
  - {fileID: 773963775}
  m_Father: {fileID: 1989891757}
  m_RootOrder: 0
  m_LocalEulerAnglesHint: {x: 0, y: 0, z: 0}
--- !u!1 &666071819
GameObject:
  m_ObjectHideFlags: 0
  m_PrefabParentObject: {fileID: 100076, guid: 8141a1e3f5562ba4d910d6c02d5d213c, type: 3}
  m_PrefabInternal: {fileID: 972882073}
  serializedVersion: 5
  m_Component:
  - component: {fileID: 666071820}
  - component: {fileID: 666071821}
  m_Layer: 0
  m_Name: mesh_R_Hand
  m_TagString: Untagged
  m_Icon: {fileID: 0}
  m_NavMeshLayer: 0
  m_StaticEditorFlags: 0
  m_IsActive: 1
--- !u!4 &666071820
Transform:
  m_ObjectHideFlags: 0
  m_PrefabParentObject: {fileID: 400076, guid: 8141a1e3f5562ba4d910d6c02d5d213c, type: 3}
  m_PrefabInternal: {fileID: 972882073}
  m_GameObject: {fileID: 666071819}
  m_LocalRotation: {x: -0.7071068, y: 0, z: -0, w: 0.7071068}
  m_LocalPosition: {x: -0, y: 0, z: 0}
  m_LocalScale: {x: 1, y: 1, z: 1}
  m_Children: []
  m_Father: {fileID: 1237958033}
  m_RootOrder: 12
  m_LocalEulerAnglesHint: {x: 0, y: 0, z: 0}
--- !u!137 &666071821
SkinnedMeshRenderer:
  m_ObjectHideFlags: 0
  m_PrefabParentObject: {fileID: 13700022, guid: 8141a1e3f5562ba4d910d6c02d5d213c,
    type: 3}
  m_PrefabInternal: {fileID: 972882073}
  m_GameObject: {fileID: 666071819}
  m_Enabled: 1
  m_CastShadows: 1
  m_ReceiveShadows: 1
  m_DynamicOccludee: 1
  m_MotionVectors: 1
  m_LightProbeUsage: 1
  m_ReflectionProbeUsage: 1
  m_RenderingLayerMask: 4294967295
  m_Materials:
  - {fileID: 2100000, guid: 4bd180b051e2ca54ebfe82cf04ec20a6, type: 2}
  m_StaticBatchInfo:
    firstSubMesh: 0
    subMeshCount: 0
  m_StaticBatchRoot: {fileID: 0}
  m_ProbeAnchor: {fileID: 0}
  m_LightProbeVolumeOverride: {fileID: 0}
  m_ScaleInLightmap: 1
  m_PreserveUVs: 0
  m_IgnoreNormalsForChartDetection: 0
  m_ImportantGI: 0
  m_StitchLightmapSeams: 0
  m_SelectedEditorRenderState: 3
  m_MinimumChartSize: 4
  m_AutoUVMaxDistance: 0.5
  m_AutoUVMaxAngle: 89
  m_LightmapParameters: {fileID: 0}
  m_SortingLayerID: 0
  m_SortingLayer: 0
  m_SortingOrder: 0
  serializedVersion: 2
  m_Quality: 0
  m_UpdateWhenOffscreen: 0
  m_SkinnedMotionVectors: 1
  m_Mesh: {fileID: 4300032, guid: 8141a1e3f5562ba4d910d6c02d5d213c, type: 3}
  m_Bones:
  - {fileID: 1826951993}
  - {fileID: 1648062772}
  m_BlendShapeWeights: []
  m_RootBone: {fileID: 1826951993}
  m_AABB:
    m_Center: {x: -0.29569086, y: 0.02457209, z: 0.053371444}
    m_Extent: {x: 0.14107087, y: 0.13462019, z: 0.12854913}
  m_DirtyAABB: 0
--- !u!1 &677642971
GameObject:
  m_ObjectHideFlags: 0
  m_PrefabParentObject: {fileID: 100010, guid: 8141a1e3f5562ba4d910d6c02d5d213c, type: 3}
  m_PrefabInternal: {fileID: 972882073}
  serializedVersion: 5
  m_Component:
  - component: {fileID: 677642972}
  m_Layer: 0
  m_Name: Bip01 L Clavicle
  m_TagString: Untagged
  m_Icon: {fileID: 0}
  m_NavMeshLayer: 0
  m_StaticEditorFlags: 0
  m_IsActive: 1
--- !u!4 &677642972
Transform:
  m_ObjectHideFlags: 0
  m_PrefabParentObject: {fileID: 400010, guid: 8141a1e3f5562ba4d910d6c02d5d213c, type: 3}
  m_PrefabInternal: {fileID: 972882073}
  m_GameObject: {fileID: 677642971}
  m_LocalRotation: {x: -0.5426097, y: -0.244821, z: 0.73241687, w: -0.33045873}
  m_LocalPosition: {x: -0.000000076293944, y: 0.00010025024, z: 0.028040834}
  m_LocalScale: {x: 1.0000001, y: 1, z: 1.0000001}
  m_Children:
  - {fileID: 924605023}
  m_Father: {fileID: 1989891757}
  m_RootOrder: 1
  m_LocalEulerAnglesHint: {x: 0, y: 0, z: 0}
--- !u!1 &767186642
GameObject:
  m_ObjectHideFlags: 0
  m_PrefabParentObject: {fileID: 100030, guid: 8141a1e3f5562ba4d910d6c02d5d213c, type: 3}
  m_PrefabInternal: {fileID: 972882073}
  serializedVersion: 5
  m_Component:
  - component: {fileID: 767186643}
  m_Layer: 0
  m_Name: Bip01 R Calf
  m_TagString: Untagged
  m_Icon: {fileID: 0}
  m_NavMeshLayer: 0
  m_StaticEditorFlags: 0
  m_IsActive: 1
--- !u!4 &767186643
Transform:
  m_ObjectHideFlags: 0
  m_PrefabParentObject: {fileID: 400030, guid: 8141a1e3f5562ba4d910d6c02d5d213c, type: 3}
  m_PrefabInternal: {fileID: 972882073}
  m_GameObject: {fileID: 767186642}
  m_LocalRotation: {x: -0.000000009004512, y: 0.000000005471844, z: 0.2370733, w: 0.9714918}
  m_LocalPosition: {x: -0.40058428, y: 0, z: -0.000000019073486}
  m_LocalScale: {x: 1.0000001, y: 1, z: 1.0000001}
  m_Children:
  - {fileID: 127540368}
  m_Father: {fileID: 930344351}
  m_RootOrder: 0
  m_LocalEulerAnglesHint: {x: 0, y: 0, z: 0}
--- !u!1 &773963774
GameObject:
  m_ObjectHideFlags: 0
  m_PrefabParentObject: {fileID: 100052, guid: 8141a1e3f5562ba4d910d6c02d5d213c, type: 3}
  m_PrefabInternal: {fileID: 972882073}
  serializedVersion: 5
  m_Component:
  - component: {fileID: 773963775}
  m_Layer: 0
  m_Name: Bone01
  m_TagString: Untagged
  m_Icon: {fileID: 0}
  m_NavMeshLayer: 0
  m_StaticEditorFlags: 0
  m_IsActive: 1
--- !u!4 &773963775
Transform:
  m_ObjectHideFlags: 0
  m_PrefabParentObject: {fileID: 400052, guid: 8141a1e3f5562ba4d910d6c02d5d213c, type: 3}
  m_PrefabInternal: {fileID: 972882073}
  m_GameObject: {fileID: 773963774}
  m_LocalRotation: {x: -0.5849704, y: 0.8110547, z: 0.00000006293869, w: 0.0000005425281}
  m_LocalPosition: {x: -0.019470824, y: 0.027223663, z: 0.00000030517577}
  m_LocalScale: {x: 0.99999994, y: 0.9999994, z: 1.0000001}
  m_Children: []
  m_Father: {fileID: 628363968}
  m_RootOrder: 1
  m_LocalEulerAnglesHint: {x: 0, y: 0, z: 0}
--- !u!1 &803149523
GameObject:
  m_ObjectHideFlags: 0
  m_PrefabParentObject: {fileID: 100018, guid: 8141a1e3f5562ba4d910d6c02d5d213c, type: 3}
  m_PrefabInternal: {fileID: 972882073}
  serializedVersion: 5
  m_Component:
  - component: {fileID: 803149524}
  m_Layer: 0
  m_Name: Bip01 L Thigh
  m_TagString: Untagged
  m_Icon: {fileID: 0}
  m_NavMeshLayer: 0
  m_StaticEditorFlags: 0
  m_IsActive: 1
--- !u!4 &803149524
Transform:
  m_ObjectHideFlags: 0
  m_PrefabParentObject: {fileID: 400018, guid: 8141a1e3f5562ba4d910d6c02d5d213c, type: 3}
  m_PrefabInternal: {fileID: 972882073}
  m_GameObject: {fileID: 803149523}
  m_LocalRotation: {x: -0.35718927, y: 0.9303173, z: -0.06953557, w: 0.045720562}
  m_LocalPosition: {x: 0.09446098, y: 0.009258461, z: 0.07682929}
  m_LocalScale: {x: 0.9999999, y: 0.99999994, z: 1}
  m_Children:
  - {fileID: 2056959197}
  m_Father: {fileID: 1286607728}
  m_RootOrder: 0
  m_LocalEulerAnglesHint: {x: 0, y: 0, z: 0}
--- !u!1 &855132136
GameObject:
  m_ObjectHideFlags: 0
  m_PrefabParentObject: {fileID: 100070, guid: 8141a1e3f5562ba4d910d6c02d5d213c, type: 3}
  m_PrefabInternal: {fileID: 972882073}
  serializedVersion: 5
  m_Component:
  - component: {fileID: 855132137}
  - component: {fileID: 855132138}
  m_Layer: 0
  m_Name: mesh_L_UpperArm
  m_TagString: Untagged
  m_Icon: {fileID: 0}
  m_NavMeshLayer: 0
  m_StaticEditorFlags: 0
  m_IsActive: 1
--- !u!4 &855132137
Transform:
  m_ObjectHideFlags: 0
  m_PrefabParentObject: {fileID: 400070, guid: 8141a1e3f5562ba4d910d6c02d5d213c, type: 3}
  m_PrefabInternal: {fileID: 972882073}
  m_GameObject: {fileID: 855132136}
  m_LocalRotation: {x: -0.7071068, y: 0, z: -0, w: 0.7071068}
  m_LocalPosition: {x: -0, y: 0, z: 0}
  m_LocalScale: {x: 1, y: 1, z: 1}
  m_Children: []
  m_Father: {fileID: 1237958033}
  m_RootOrder: 9
  m_LocalEulerAnglesHint: {x: 0, y: 0, z: 0}
--- !u!137 &855132138
SkinnedMeshRenderer:
  m_ObjectHideFlags: 0
  m_PrefabParentObject: {fileID: 13700016, guid: 8141a1e3f5562ba4d910d6c02d5d213c,
    type: 3}
  m_PrefabInternal: {fileID: 972882073}
  m_GameObject: {fileID: 855132136}
  m_Enabled: 1
  m_CastShadows: 1
  m_ReceiveShadows: 1
  m_DynamicOccludee: 1
  m_MotionVectors: 1
  m_LightProbeUsage: 1
  m_ReflectionProbeUsage: 1
  m_RenderingLayerMask: 4294967295
  m_Materials:
  - {fileID: 2100000, guid: 4bd180b051e2ca54ebfe82cf04ec20a6, type: 2}
  m_StaticBatchInfo:
    firstSubMesh: 0
    subMeshCount: 0
  m_StaticBatchRoot: {fileID: 0}
  m_ProbeAnchor: {fileID: 0}
  m_LightProbeVolumeOverride: {fileID: 0}
  m_ScaleInLightmap: 1
  m_PreserveUVs: 0
  m_IgnoreNormalsForChartDetection: 0
  m_ImportantGI: 0
  m_StitchLightmapSeams: 0
  m_SelectedEditorRenderState: 3
  m_MinimumChartSize: 4
  m_AutoUVMaxDistance: 0.5
  m_AutoUVMaxAngle: 89
  m_LightmapParameters: {fileID: 0}
  m_SortingLayerID: 0
  m_SortingLayer: 0
  m_SortingOrder: 0
  serializedVersion: 2
  m_Quality: 0
  m_UpdateWhenOffscreen: 0
  m_SkinnedMotionVectors: 1
  m_Mesh: {fileID: 4300002, guid: 8141a1e3f5562ba4d910d6c02d5d213c, type: 3}
  m_Bones:
  - {fileID: 677642972}
  - {fileID: 924605023}
  - {fileID: 25580797}
  - {fileID: 1286607728}
  - {fileID: 1102786649}
  - {fileID: 628363968}
  - {fileID: 1886528290}
  m_BlendShapeWeights: []
  m_RootBone: {fileID: 1286607728}
  m_AABB:
    m_Center: {x: -0.38307673, y: -0.01932934, z: 0.20449162}
    m_Extent: {x: 0.20009309, y: 0.17588976, z: 0.15605038}
  m_DirtyAABB: 0
--- !u!1 &924605022
GameObject:
  m_ObjectHideFlags: 0
  m_PrefabParentObject: {fileID: 100024, guid: 8141a1e3f5562ba4d910d6c02d5d213c, type: 3}
  m_PrefabInternal: {fileID: 972882073}
  serializedVersion: 5
  m_Component:
  - component: {fileID: 924605023}
  m_Layer: 0
  m_Name: Bip01 L UpperArm
  m_TagString: Untagged
  m_Icon: {fileID: 0}
  m_NavMeshLayer: 0
  m_StaticEditorFlags: 0
  m_IsActive: 1
--- !u!4 &924605023
Transform:
  m_ObjectHideFlags: 0
  m_PrefabParentObject: {fileID: 400024, guid: 8141a1e3f5562ba4d910d6c02d5d213c, type: 3}
  m_PrefabInternal: {fileID: 972882073}
  m_GameObject: {fileID: 924605022}
  m_LocalRotation: {x: -0.084668234, y: -0.37674892, z: -0.20134561, w: 0.90019524}
  m_LocalPosition: {x: -0.1523885, y: 0.000000076293944, z: 0}
  m_LocalScale: {x: 0.99999994, y: 1.0000001, z: 1}
  m_Children:
  - {fileID: 1102786649}
  m_Father: {fileID: 677642972}
  m_RootOrder: 0
  m_LocalEulerAnglesHint: {x: 0, y: 0, z: 0}
--- !u!1 &930344350
GameObject:
  m_ObjectHideFlags: 0
  m_PrefabParentObject: {fileID: 100040, guid: 8141a1e3f5562ba4d910d6c02d5d213c, type: 3}
  m_PrefabInternal: {fileID: 972882073}
  serializedVersion: 5
  m_Component:
  - component: {fileID: 930344351}
  m_Layer: 0
  m_Name: Bip01 R Thigh
  m_TagString: Untagged
  m_Icon: {fileID: 0}
  m_NavMeshLayer: 0
  m_StaticEditorFlags: 0
  m_IsActive: 1
--- !u!4 &930344351
Transform:
  m_ObjectHideFlags: 0
  m_PrefabParentObject: {fileID: 400040, guid: 8141a1e3f5562ba4d910d6c02d5d213c, type: 3}
  m_PrefabInternal: {fileID: 972882073}
  m_GameObject: {fileID: 930344350}
  m_LocalRotation: {x: -0.063578345, y: 0.99231684, z: -0.04351062, w: -0.09680883}
  m_LocalPosition: {x: 0.08969703, y: -0.006102743, z: -0.082595006}
  m_LocalScale: {x: 0.99999994, y: 1.0000001, z: 1.0000001}
  m_Children:
  - {fileID: 767186643}
  m_Father: {fileID: 1286607728}
  m_RootOrder: 1
  m_LocalEulerAnglesHint: {x: 0, y: 0, z: 0}
--- !u!1 &964586064
GameObject:
  m_ObjectHideFlags: 0
  m_PrefabParentObject: {fileID: 100058, guid: 8141a1e3f5562ba4d910d6c02d5d213c, type: 3}
  m_PrefabInternal: {fileID: 972882073}
  serializedVersion: 5
  m_Component:
  - component: {fileID: 964586065}
  - component: {fileID: 964586066}
  m_Layer: 0
  m_Name: mesh_L_Forearm
  m_TagString: Untagged
  m_Icon: {fileID: 0}
  m_NavMeshLayer: 0
  m_StaticEditorFlags: 0
  m_IsActive: 1
--- !u!4 &964586065
Transform:
  m_ObjectHideFlags: 0
  m_PrefabParentObject: {fileID: 400058, guid: 8141a1e3f5562ba4d910d6c02d5d213c, type: 3}
  m_PrefabInternal: {fileID: 972882073}
  m_GameObject: {fileID: 964586064}
  m_LocalRotation: {x: -0.7071068, y: 0, z: -0, w: 0.7071068}
  m_LocalPosition: {x: -0, y: 0, z: 0}
  m_LocalScale: {x: 1, y: 1, z: 1}
  m_Children: []
  m_Father: {fileID: 1237958033}
  m_RootOrder: 3
  m_LocalEulerAnglesHint: {x: 0, y: 0, z: 0}
--- !u!137 &964586066
SkinnedMeshRenderer:
  m_ObjectHideFlags: 0
  m_PrefabParentObject: {fileID: 13700004, guid: 8141a1e3f5562ba4d910d6c02d5d213c,
    type: 3}
  m_PrefabInternal: {fileID: 972882073}
  m_GameObject: {fileID: 964586064}
  m_Enabled: 1
  m_CastShadows: 1
  m_ReceiveShadows: 1
  m_DynamicOccludee: 1
  m_MotionVectors: 1
  m_LightProbeUsage: 1
  m_ReflectionProbeUsage: 1
  m_RenderingLayerMask: 4294967295
  m_Materials:
  - {fileID: 2100000, guid: 4bd180b051e2ca54ebfe82cf04ec20a6, type: 2}
  m_StaticBatchInfo:
    firstSubMesh: 0
    subMeshCount: 0
  m_StaticBatchRoot: {fileID: 0}
  m_ProbeAnchor: {fileID: 0}
  m_LightProbeVolumeOverride: {fileID: 0}
  m_ScaleInLightmap: 1
  m_PreserveUVs: 0
  m_IgnoreNormalsForChartDetection: 0
  m_ImportantGI: 0
  m_StitchLightmapSeams: 0
  m_SelectedEditorRenderState: 3
  m_MinimumChartSize: 4
  m_AutoUVMaxDistance: 0.5
  m_AutoUVMaxAngle: 89
  m_LightmapParameters: {fileID: 0}
  m_SortingLayerID: 0
  m_SortingLayer: 0
  m_SortingOrder: 0
  serializedVersion: 2
  m_Quality: 0
  m_UpdateWhenOffscreen: 0
  m_SkinnedMotionVectors: 1
  m_Mesh: {fileID: 4300000, guid: 8141a1e3f5562ba4d910d6c02d5d213c, type: 3}
  m_Bones:
  - {fileID: 1102786649}
  - {fileID: 924605023}
  - {fileID: 1286607728}
  - {fileID: 25580797}
  - {fileID: 546541881}
  - {fileID: 1794462609}
  m_BlendShapeWeights: []
  m_RootBone: {fileID: 1794462609}
  m_AABB:
    m_Center: {x: 0.10474871, y: 0.325811, z: 0.28736317}
    m_Extent: {x: 0.10674591, y: 0.16395062, z: 0.18976991}
  m_DirtyAABB: 0
--- !u!1001 &972882073
Prefab:
  m_ObjectHideFlags: 0
  serializedVersion: 2
  m_Modification:
    m_TransformParent: {fileID: 0}
    m_Modifications:
    - target: {fileID: 400088, guid: 8141a1e3f5562ba4d910d6c02d5d213c, type: 3}
      propertyPath: m_LocalPosition.x
      value: .308160007
      objectReference: {fileID: 0}
    - target: {fileID: 400088, guid: 8141a1e3f5562ba4d910d6c02d5d213c, type: 3}
      propertyPath: m_LocalPosition.y
      value: -.0629439354
      objectReference: {fileID: 0}
    - target: {fileID: 400088, guid: 8141a1e3f5562ba4d910d6c02d5d213c, type: 3}
      propertyPath: m_LocalPosition.z
      value: -1.33780217
      objectReference: {fileID: 0}
    - target: {fileID: 400088, guid: 8141a1e3f5562ba4d910d6c02d5d213c, type: 3}
      propertyPath: m_LocalRotation.x
      value: 0
      objectReference: {fileID: 0}
    - target: {fileID: 400088, guid: 8141a1e3f5562ba4d910d6c02d5d213c, type: 3}
      propertyPath: m_LocalRotation.y
      value: 0
      objectReference: {fileID: 0}
    - target: {fileID: 400088, guid: 8141a1e3f5562ba4d910d6c02d5d213c, type: 3}
      propertyPath: m_LocalRotation.z
      value: 0
      objectReference: {fileID: 0}
    - target: {fileID: 400088, guid: 8141a1e3f5562ba4d910d6c02d5d213c, type: 3}
      propertyPath: m_LocalRotation.w
      value: 1
      objectReference: {fileID: 0}
    - target: {fileID: 400088, guid: 8141a1e3f5562ba4d910d6c02d5d213c, type: 3}
      propertyPath: m_RootOrder
      value: 0
      objectReference: {fileID: 0}
    m_RemovedComponents: []
  m_ParentPrefab: {fileID: 100100000, guid: 8141a1e3f5562ba4d910d6c02d5d213c, type: 3}
  m_RootGameObject: {fileID: 1237958032}
  m_IsPrefabParent: 0
--- !u!1 &973273526
GameObject:
  m_ObjectHideFlags: 0
  m_PrefabParentObject: {fileID: 100056, guid: 8141a1e3f5562ba4d910d6c02d5d213c, type: 3}
  m_PrefabInternal: {fileID: 972882073}
  serializedVersion: 5
  m_Component:
  - component: {fileID: 973273527}
  - component: {fileID: 973273528}
  m_Layer: 0
  m_Name: mesh_L_Calf
  m_TagString: Untagged
  m_Icon: {fileID: 0}
  m_NavMeshLayer: 0
  m_StaticEditorFlags: 0
  m_IsActive: 1
--- !u!4 &973273527
Transform:
  m_ObjectHideFlags: 0
  m_PrefabParentObject: {fileID: 400056, guid: 8141a1e3f5562ba4d910d6c02d5d213c, type: 3}
  m_PrefabInternal: {fileID: 972882073}
  m_GameObject: {fileID: 973273526}
  m_LocalRotation: {x: -0.7071068, y: 0, z: -0, w: 0.7071068}
  m_LocalPosition: {x: -0, y: 0, z: 0}
  m_LocalScale: {x: 1, y: 1, z: 1}
  m_Children: []
  m_Father: {fileID: 1237958033}
  m_RootOrder: 2
  m_LocalEulerAnglesHint: {x: 0, y: 0, z: 0}
--- !u!137 &973273528
SkinnedMeshRenderer:
  m_ObjectHideFlags: 0
  m_PrefabParentObject: {fileID: 13700002, guid: 8141a1e3f5562ba4d910d6c02d5d213c,
    type: 3}
  m_PrefabInternal: {fileID: 972882073}
  m_GameObject: {fileID: 973273526}
  m_Enabled: 1
  m_CastShadows: 1
  m_ReceiveShadows: 1
  m_DynamicOccludee: 1
  m_MotionVectors: 1
  m_LightProbeUsage: 1
  m_ReflectionProbeUsage: 1
  m_RenderingLayerMask: 4294967295
  m_Materials:
  - {fileID: 2100000, guid: 4bd180b051e2ca54ebfe82cf04ec20a6, type: 2}
  m_StaticBatchInfo:
    firstSubMesh: 0
    subMeshCount: 0
  m_StaticBatchRoot: {fileID: 0}
  m_ProbeAnchor: {fileID: 0}
  m_LightProbeVolumeOverride: {fileID: 0}
  m_ScaleInLightmap: 1
  m_PreserveUVs: 0
  m_IgnoreNormalsForChartDetection: 0
  m_ImportantGI: 0
  m_StitchLightmapSeams: 0
  m_SelectedEditorRenderState: 3
  m_MinimumChartSize: 4
  m_AutoUVMaxDistance: 0.5
  m_AutoUVMaxAngle: 89
  m_LightmapParameters: {fileID: 0}
  m_SortingLayerID: 0
  m_SortingLayer: 0
  m_SortingOrder: 0
  serializedVersion: 2
  m_Quality: 0
  m_UpdateWhenOffscreen: 0
  m_SkinnedMotionVectors: 1
  m_Mesh: {fileID: 4300008, guid: 8141a1e3f5562ba4d910d6c02d5d213c, type: 3}
  m_Bones:
  - {fileID: 2056959197}
  - {fileID: 803149524}
  - {fileID: 1842628432}
  - {fileID: 1346077169}
  - {fileID: 930344351}
  - {fileID: 2108438608}
  m_BlendShapeWeights: []
  m_RootBone: {fileID: 1842628432}
  m_AABB:
    m_Center: {x: 0.47497767, y: 0.32853028, z: 0.15580378}
    m_Extent: {x: 0.321517, y: 0.21101312, z: 0.123309925}
  m_DirtyAABB: 0
--- !u!1 &980073896
GameObject:
  m_ObjectHideFlags: 0
  m_PrefabParentObject: {fileID: 100064, guid: 8141a1e3f5562ba4d910d6c02d5d213c, type: 3}
  m_PrefabInternal: {fileID: 972882073}
  serializedVersion: 5
  m_Component:
  - component: {fileID: 980073897}
  - component: {fileID: 980073898}
  m_Layer: 0
  m_Name: mesh_L_Spine
  m_TagString: Untagged
  m_Icon: {fileID: 0}
  m_NavMeshLayer: 0
  m_StaticEditorFlags: 0
  m_IsActive: 1
--- !u!4 &980073897
Transform:
  m_ObjectHideFlags: 0
  m_PrefabParentObject: {fileID: 400064, guid: 8141a1e3f5562ba4d910d6c02d5d213c, type: 3}
  m_PrefabInternal: {fileID: 972882073}
  m_GameObject: {fileID: 980073896}
  m_LocalRotation: {x: -0.7071068, y: 0, z: -0, w: 0.7071068}
  m_LocalPosition: {x: -0, y: 0, z: 0}
  m_LocalScale: {x: 1, y: 1, z: 1}
  m_Children: []
  m_Father: {fileID: 1237958033}
  m_RootOrder: 6
  m_LocalEulerAnglesHint: {x: 0, y: 0, z: 0}
--- !u!137 &980073898
SkinnedMeshRenderer:
  m_ObjectHideFlags: 0
  m_PrefabParentObject: {fileID: 13700010, guid: 8141a1e3f5562ba4d910d6c02d5d213c,
    type: 3}
  m_PrefabInternal: {fileID: 972882073}
  m_GameObject: {fileID: 980073896}
  m_Enabled: 1
  m_CastShadows: 1
  m_ReceiveShadows: 1
  m_DynamicOccludee: 1
  m_MotionVectors: 1
  m_LightProbeUsage: 1
  m_ReflectionProbeUsage: 1
  m_RenderingLayerMask: 4294967295
  m_Materials:
  - {fileID: 2100000, guid: 4bd180b051e2ca54ebfe82cf04ec20a6, type: 2}
  m_StaticBatchInfo:
    firstSubMesh: 0
    subMeshCount: 0
  m_StaticBatchRoot: {fileID: 0}
  m_ProbeAnchor: {fileID: 0}
  m_LightProbeVolumeOverride: {fileID: 0}
  m_ScaleInLightmap: 1
  m_PreserveUVs: 0
  m_IgnoreNormalsForChartDetection: 0
  m_ImportantGI: 0
  m_StitchLightmapSeams: 0
  m_SelectedEditorRenderState: 3
  m_MinimumChartSize: 4
  m_AutoUVMaxDistance: 0.5
  m_AutoUVMaxAngle: 89
  m_LightmapParameters: {fileID: 0}
  m_SortingLayerID: 0
  m_SortingLayer: 0
  m_SortingOrder: 0
  serializedVersion: 2
  m_Quality: 0
  m_UpdateWhenOffscreen: 0
  m_SkinnedMotionVectors: 1
  m_Mesh: {fileID: 4300010, guid: 8141a1e3f5562ba4d910d6c02d5d213c, type: 3}
  m_Bones:
  - {fileID: 1286607728}
  - {fileID: 25580797}
  - {fileID: 1842628432}
  - {fileID: 803149524}
  - {fileID: 930344351}
  - {fileID: 1886528290}
  - {fileID: 677642972}
  - {fileID: 924605023}
  - {fileID: 1794462609}
  m_BlendShapeWeights: []
  m_RootBone: {fileID: 1794462609}
  m_AABB:
    m_Center: {x: -0.0134084225, y: 0.037240535, z: 0.29350507}
    m_Extent: {x: 0.18665156, y: 0.13690099, z: 0.22911602}
  m_DirtyAABB: 0
--- !u!1 &1102786648
GameObject:
  m_ObjectHideFlags: 0
  m_PrefabParentObject: {fileID: 100014, guid: 8141a1e3f5562ba4d910d6c02d5d213c, type: 3}
  m_PrefabInternal: {fileID: 972882073}
  serializedVersion: 5
  m_Component:
  - component: {fileID: 1102786649}
  m_Layer: 0
  m_Name: Bip01 L Forearm
  m_TagString: Untagged
  m_Icon: {fileID: 0}
  m_NavMeshLayer: 0
  m_StaticEditorFlags: 0
  m_IsActive: 1
--- !u!4 &1102786649
Transform:
  m_ObjectHideFlags: 0
  m_PrefabParentObject: {fileID: 400014, guid: 8141a1e3f5562ba4d910d6c02d5d213c, type: 3}
  m_PrefabInternal: {fileID: 972882073}
  m_GameObject: {fileID: 1102786648}
  m_LocalRotation: {x: -0.000000015194578, y: 0.00000002590716, z: 0.3950109, w: 0.91867644}
  m_LocalPosition: {x: -0.31570107, y: 0, z: -0.000000076293944}
  m_LocalScale: {x: 1, y: 1.0000001, z: 1}
  m_Children:
  - {fileID: 546541881}
  m_Father: {fileID: 924605023}
  m_RootOrder: 0
  m_LocalEulerAnglesHint: {x: 0, y: 0, z: 0}
--- !u!1 &1176363794
GameObject:
  m_ObjectHideFlags: 0
  m_PrefabParentObject: {fileID: 100084, guid: 8141a1e3f5562ba4d910d6c02d5d213c, type: 3}
  m_PrefabInternal: {fileID: 972882073}
  serializedVersion: 5
  m_Component:
  - component: {fileID: 1176363795}
  - component: {fileID: 1176363796}
  m_Layer: 0
  m_Name: mesh_R_Thigh
  m_TagString: Untagged
  m_Icon: {fileID: 0}
  m_NavMeshLayer: 0
  m_StaticEditorFlags: 0
  m_IsActive: 1
--- !u!4 &1176363795
Transform:
  m_ObjectHideFlags: 0
  m_PrefabParentObject: {fileID: 400084, guid: 8141a1e3f5562ba4d910d6c02d5d213c, type: 3}
  m_PrefabInternal: {fileID: 972882073}
  m_GameObject: {fileID: 1176363794}
  m_LocalRotation: {x: -0.7071068, y: 0, z: -0, w: 0.7071068}
  m_LocalPosition: {x: -0, y: 0, z: 0}
  m_LocalScale: {x: 1, y: 1, z: 1}
  m_Children: []
  m_Father: {fileID: 1237958033}
  m_RootOrder: 16
  m_LocalEulerAnglesHint: {x: 0, y: 0, z: 0}
--- !u!137 &1176363796
SkinnedMeshRenderer:
  m_ObjectHideFlags: 0
  m_PrefabParentObject: {fileID: 13700030, guid: 8141a1e3f5562ba4d910d6c02d5d213c,
    type: 3}
  m_PrefabInternal: {fileID: 972882073}
  m_GameObject: {fileID: 1176363794}
  m_Enabled: 1
  m_CastShadows: 1
  m_ReceiveShadows: 1
  m_DynamicOccludee: 1
  m_MotionVectors: 1
  m_LightProbeUsage: 1
  m_ReflectionProbeUsage: 1
  m_RenderingLayerMask: 4294967295
  m_Materials:
  - {fileID: 2100000, guid: 4bd180b051e2ca54ebfe82cf04ec20a6, type: 2}
  m_StaticBatchInfo:
    firstSubMesh: 0
    subMeshCount: 0
  m_StaticBatchRoot: {fileID: 0}
  m_ProbeAnchor: {fileID: 0}
  m_LightProbeVolumeOverride: {fileID: 0}
  m_ScaleInLightmap: 1
  m_PreserveUVs: 0
  m_IgnoreNormalsForChartDetection: 0
  m_ImportantGI: 0
  m_StitchLightmapSeams: 0
  m_SelectedEditorRenderState: 3
  m_MinimumChartSize: 4
  m_AutoUVMaxDistance: 0.5
  m_AutoUVMaxAngle: 89
  m_LightmapParameters: {fileID: 0}
  m_SortingLayerID: 0
  m_SortingLayer: 0
  m_SortingOrder: 0
  serializedVersion: 2
  m_Quality: 0
  m_UpdateWhenOffscreen: 0
  m_SkinnedMotionVectors: 1
  m_Mesh: {fileID: 4300018, guid: 8141a1e3f5562ba4d910d6c02d5d213c, type: 3}
  m_Bones:
  - {fileID: 1842628432}
  - {fileID: 930344351}
  - {fileID: 1286607728}
  - {fileID: 803149524}
  - {fileID: 767186643}
  - {fileID: 1794462609}
  m_BlendShapeWeights: []
  m_RootBone: {fileID: 1794462609}
  m_AABB:
    m_Center: {x: -0.032590356, y: -0.120818734, z: -0.20648548}
    m_Extent: {x: 0.13304822, y: 0.12525204, z: 0.24552831}
  m_DirtyAABB: 0
--- !u!1 &1237958032
GameObject:
  m_ObjectHideFlags: 0
  m_PrefabParentObject: {fileID: 100088, guid: 8141a1e3f5562ba4d910d6c02d5d213c, type: 3}
  m_PrefabInternal: {fileID: 972882073}
  serializedVersion: 5
  m_Component:
  - component: {fileID: 1237958033}
  - component: {fileID: 1237958034}
  m_Layer: 0
  m_Name: z@walk
  m_TagString: Untagged
  m_Icon: {fileID: 0}
  m_NavMeshLayer: 0
  m_StaticEditorFlags: 0
  m_IsActive: 1
--- !u!4 &1237958033
Transform:
  m_ObjectHideFlags: 0
  m_PrefabParentObject: {fileID: 400088, guid: 8141a1e3f5562ba4d910d6c02d5d213c, type: 3}
  m_PrefabInternal: {fileID: 972882073}
  m_GameObject: {fileID: 1237958032}
  m_LocalRotation: {x: 0, y: 0, z: 0, w: 1}
  m_LocalPosition: {x: 0.30816, y: -0.062943935, z: -1.3378022}
  m_LocalScale: {x: 1, y: 1, z: 1}
  m_Children:
  - {fileID: 1794462609}
  - {fileID: 1726514561}
  - {fileID: 973273527}
  - {fileID: 964586065}
  - {fileID: 1876124256}
  - {fileID: 1614407201}
  - {fileID: 980073897}
  - {fileID: 1361981281}
  - {fileID: 1676945942}
  - {fileID: 855132137}
  - {fileID: 1342556002}
  - {fileID: 286491092}
  - {fileID: 666071820}
  - {fileID: 530205320}
  - {fileID: 20796286}
  - {fileID: 1540351050}
  - {fileID: 1176363795}
  - {fileID: 1812061778}
  m_Father: {fileID: 0}
  m_RootOrder: 0
  m_LocalEulerAnglesHint: {x: 0, y: 0, z: 0}
--- !u!95 &1237958034
Animator:
  serializedVersion: 3
  m_ObjectHideFlags: 0
  m_PrefabParentObject: {fileID: 9500000, guid: 8141a1e3f5562ba4d910d6c02d5d213c,
    type: 3}
  m_PrefabInternal: {fileID: 972882073}
  m_GameObject: {fileID: 1237958032}
  m_Enabled: 1
  m_Avatar: {fileID: 9000000, guid: 8141a1e3f5562ba4d910d6c02d5d213c, type: 3}
  m_Controller: {fileID: 0}
  m_CullingMode: 1
  m_UpdateMode: 0
  m_ApplyRootMotion: 1
  m_LinearVelocityBlending: 0
  m_WarningMessage: 
  m_HasTransformHierarchy: 1
  m_AllowConstantClipSamplingOptimization: 1
  m_KeepAnimatorControllerStateOnDisable: 0
--- !u!1 &1286607727
GameObject:
  m_ObjectHideFlags: 0
  m_PrefabParentObject: {fileID: 100048, guid: 8141a1e3f5562ba4d910d6c02d5d213c, type: 3}
  m_PrefabInternal: {fileID: 972882073}
  serializedVersion: 5
  m_Component:
  - component: {fileID: 1286607728}
  m_Layer: 0
  m_Name: Bip01 Spine
  m_TagString: Untagged
  m_Icon: {fileID: 0}
  m_NavMeshLayer: 0
  m_StaticEditorFlags: 0
  m_IsActive: 1
--- !u!4 &1286607728
Transform:
  m_ObjectHideFlags: 0
  m_PrefabParentObject: {fileID: 400048, guid: 8141a1e3f5562ba4d910d6c02d5d213c, type: 3}
  m_PrefabInternal: {fileID: 972882073}
  m_GameObject: {fileID: 1286607727}
  m_LocalRotation: {x: 0.047870826, y: -0.015274341, z: -0.008139946, w: 0.9987036}
  m_LocalPosition: {x: -0.092137374, y: -0.00021356583, z: -0.000020446398}
  m_LocalScale: {x: 1, y: 1.0000001, z: 0.99999994}
  m_Children:
  - {fileID: 803149524}
  - {fileID: 930344351}
  - {fileID: 25580797}
  m_Father: {fileID: 1842628432}
  m_RootOrder: 0
  m_LocalEulerAnglesHint: {x: 0, y: 0, z: 0}
--- !u!1 &1342556001
GameObject:
  m_ObjectHideFlags: 0
  m_PrefabParentObject: {fileID: 100072, guid: 8141a1e3f5562ba4d910d6c02d5d213c, type: 3}
  m_PrefabInternal: {fileID: 972882073}
  serializedVersion: 5
  m_Component:
  - component: {fileID: 1342556002}
  - component: {fileID: 1342556003}
  m_Layer: 0
  m_Name: mesh_R _Calf
  m_TagString: Untagged
  m_Icon: {fileID: 0}
  m_NavMeshLayer: 0
  m_StaticEditorFlags: 0
  m_IsActive: 1
--- !u!4 &1342556002
Transform:
  m_ObjectHideFlags: 0
  m_PrefabParentObject: {fileID: 400072, guid: 8141a1e3f5562ba4d910d6c02d5d213c, type: 3}
  m_PrefabInternal: {fileID: 972882073}
  m_GameObject: {fileID: 1342556001}
  m_LocalRotation: {x: -0.7071068, y: 0, z: -0, w: 0.7071068}
  m_LocalPosition: {x: -0, y: 0, z: 0}
  m_LocalScale: {x: 1, y: 1, z: 1}
  m_Children: []
  m_Father: {fileID: 1237958033}
  m_RootOrder: 10
  m_LocalEulerAnglesHint: {x: 0, y: 0, z: 0}
--- !u!137 &1342556003
SkinnedMeshRenderer:
  m_ObjectHideFlags: 0
  m_PrefabParentObject: {fileID: 13700018, guid: 8141a1e3f5562ba4d910d6c02d5d213c,
    type: 3}
  m_PrefabInternal: {fileID: 972882073}
  m_GameObject: {fileID: 1342556001}
  m_Enabled: 1
  m_CastShadows: 1
  m_ReceiveShadows: 1
  m_DynamicOccludee: 1
  m_MotionVectors: 1
  m_LightProbeUsage: 1
  m_ReflectionProbeUsage: 1
  m_RenderingLayerMask: 4294967295
  m_Materials:
  - {fileID: 2100000, guid: 4bd180b051e2ca54ebfe82cf04ec20a6, type: 2}
  m_StaticBatchInfo:
    firstSubMesh: 0
    subMeshCount: 0
  m_StaticBatchRoot: {fileID: 0}
  m_ProbeAnchor: {fileID: 0}
  m_LightProbeVolumeOverride: {fileID: 0}
  m_ScaleInLightmap: 1
  m_PreserveUVs: 0
  m_IgnoreNormalsForChartDetection: 0
  m_ImportantGI: 0
  m_StitchLightmapSeams: 0
  m_SelectedEditorRenderState: 3
  m_MinimumChartSize: 4
  m_AutoUVMaxDistance: 0.5
  m_AutoUVMaxAngle: 89
  m_LightmapParameters: {fileID: 0}
  m_SortingLayerID: 0
  m_SortingLayer: 0
  m_SortingOrder: 0
  serializedVersion: 2
  m_Quality: 0
  m_UpdateWhenOffscreen: 0
  m_SkinnedMotionVectors: 1
  m_Mesh: {fileID: 4300020, guid: 8141a1e3f5562ba4d910d6c02d5d213c, type: 3}
  m_Bones:
  - {fileID: 803149524}
  - {fileID: 767186643}
  - {fileID: 930344351}
  - {fileID: 1842628432}
  - {fileID: 127540368}
  - {fileID: 2132193292}
  m_BlendShapeWeights: []
  m_RootBone: {fileID: 1842628432}
  m_AABB:
    m_Center: {x: 0.5520952, y: -0.023685277, z: -0.1638949}
    m_Extent: {x: 0.3184572, y: 0.17820251, z: 0.120058104}
  m_DirtyAABB: 0
--- !u!1 &1346077168
GameObject:
  m_ObjectHideFlags: 0
  m_PrefabParentObject: {fileID: 100012, guid: 8141a1e3f5562ba4d910d6c02d5d213c, type: 3}
  m_PrefabInternal: {fileID: 972882073}
  serializedVersion: 5
  m_Component:
  - component: {fileID: 1346077169}
  m_Layer: 0
  m_Name: Bip01 L Foot
  m_TagString: Untagged
  m_Icon: {fileID: 0}
  m_NavMeshLayer: 0
  m_StaticEditorFlags: 0
  m_IsActive: 1
--- !u!4 &1346077169
Transform:
  m_ObjectHideFlags: 0
  m_PrefabParentObject: {fileID: 400012, guid: 8141a1e3f5562ba4d910d6c02d5d213c, type: 3}
  m_PrefabInternal: {fileID: 972882073}
  m_GameObject: {fileID: 1346077168}
  m_LocalRotation: {x: -0.11084686, y: 0.13439952, z: 0.008176544, w: 0.98467404}
  m_LocalPosition: {x: -0.40058422, y: -0.000000038146972, z: 0}
  m_LocalScale: {x: 1, y: 1, z: 1}
  m_Children:
  - {fileID: 2108438608}
  m_Father: {fileID: 2056959197}
  m_RootOrder: 0
  m_LocalEulerAnglesHint: {x: 0, y: 0, z: 0}
--- !u!1 &1361981280
GameObject:
  m_ObjectHideFlags: 0
  m_PrefabParentObject: {fileID: 100066, guid: 8141a1e3f5562ba4d910d6c02d5d213c, type: 3}
  m_PrefabInternal: {fileID: 972882073}
  serializedVersion: 5
  m_Component:
  - component: {fileID: 1361981281}
  - component: {fileID: 1361981282}
  m_Layer: 0
  m_Name: mesh_L_Spine1
  m_TagString: Untagged
  m_Icon: {fileID: 0}
  m_NavMeshLayer: 0
  m_StaticEditorFlags: 0
  m_IsActive: 1
--- !u!4 &1361981281
Transform:
  m_ObjectHideFlags: 0
  m_PrefabParentObject: {fileID: 400066, guid: 8141a1e3f5562ba4d910d6c02d5d213c, type: 3}
  m_PrefabInternal: {fileID: 972882073}
  m_GameObject: {fileID: 1361981280}
  m_LocalRotation: {x: -0.7071068, y: 0, z: -0, w: 0.7071068}
  m_LocalPosition: {x: -0, y: 0, z: 0}
  m_LocalScale: {x: 1, y: 1, z: 1}
  m_Children: []
  m_Father: {fileID: 1237958033}
  m_RootOrder: 7
  m_LocalEulerAnglesHint: {x: 0, y: 0, z: 0}
--- !u!137 &1361981282
SkinnedMeshRenderer:
  m_ObjectHideFlags: 0
  m_PrefabParentObject: {fileID: 13700012, guid: 8141a1e3f5562ba4d910d6c02d5d213c,
    type: 3}
  m_PrefabInternal: {fileID: 972882073}
  m_GameObject: {fileID: 1361981280}
  m_Enabled: 1
  m_CastShadows: 1
  m_ReceiveShadows: 1
  m_DynamicOccludee: 1
  m_MotionVectors: 1
  m_LightProbeUsage: 1
  m_ReflectionProbeUsage: 1
  m_RenderingLayerMask: 4294967295
  m_Materials:
  - {fileID: 2100000, guid: 4bd180b051e2ca54ebfe82cf04ec20a6, type: 2}
  m_StaticBatchInfo:
    firstSubMesh: 0
    subMeshCount: 0
  m_StaticBatchRoot: {fileID: 0}
  m_ProbeAnchor: {fileID: 0}
  m_LightProbeVolumeOverride: {fileID: 0}
  m_ScaleInLightmap: 1
  m_PreserveUVs: 0
  m_IgnoreNormalsForChartDetection: 0
  m_ImportantGI: 0
  m_StitchLightmapSeams: 0
  m_SelectedEditorRenderState: 3
  m_MinimumChartSize: 4
  m_AutoUVMaxDistance: 0.5
  m_AutoUVMaxAngle: 89
  m_LightmapParameters: {fileID: 0}
  m_SortingLayerID: 0
  m_SortingLayer: 0
  m_SortingOrder: 0
  serializedVersion: 2
  m_Quality: 0
  m_UpdateWhenOffscreen: 0
  m_SkinnedMotionVectors: 1
  m_Mesh: {fileID: 4300012, guid: 8141a1e3f5562ba4d910d6c02d5d213c, type: 3}
  m_Bones:
  - {fileID: 628363968}
  - {fileID: 677642972}
  - {fileID: 1989891757}
  - {fileID: 1886528290}
  - {fileID: 25580797}
  - {fileID: 773963775}
  - {fileID: 924605023}
  - {fileID: 1286607728}
  - {fileID: 1548831763}
  m_BlendShapeWeights: []
  m_RootBone: {fileID: 1286607728}
  m_AABB:
    m_Center: {x: -0.40753782, y: 0.05458512, z: 0.03743942}
    m_Extent: {x: 0.23581594, y: 0.18615288, z: 0.24387412}
  m_DirtyAABB: 0
--- !u!1 &1372993509
GameObject:
  m_ObjectHideFlags: 0
  m_PrefabParentObject: {fileID: 100022, guid: 8141a1e3f5562ba4d910d6c02d5d213c, type: 3}
  m_PrefabInternal: {fileID: 972882073}
  serializedVersion: 5
  m_Component:
  - component: {fileID: 1372993510}
  m_Layer: 0
  m_Name: Bip01 L Toe0Nub
  m_TagString: Untagged
  m_Icon: {fileID: 0}
  m_NavMeshLayer: 0
  m_StaticEditorFlags: 0
  m_IsActive: 1
--- !u!4 &1372993510
Transform:
  m_ObjectHideFlags: 0
  m_PrefabParentObject: {fileID: 400022, guid: 8141a1e3f5562ba4d910d6c02d5d213c, type: 3}
  m_PrefabInternal: {fileID: 972882073}
  m_GameObject: {fileID: 1372993509}
  m_LocalRotation: {x: 0.0000000012805685, y: -7.841221e-26, z: 1, w: 6.123234e-17}
  m_LocalPosition: {x: -0.03775066, y: 0, z: 0}
  m_LocalScale: {x: -1, y: -1, z: -1}
  m_Children: []
  m_Father: {fileID: 2108438608}
  m_RootOrder: 0
  m_LocalEulerAnglesHint: {x: 0, y: 0, z: 0}
--- !u!1 &1406201965
GameObject:
  m_ObjectHideFlags: 0
  m_PrefabParentObject: {fileID: 0}
  m_PrefabInternal: {fileID: 0}
  serializedVersion: 5
  m_Component:
  - component: {fileID: 1406201969}
  - component: {fileID: 1406201968}
  - component: {fileID: 1406201967}
  - component: {fileID: 1406201966}
  m_Layer: 0
  m_Name: Plane
  m_TagString: Untagged
  m_Icon: {fileID: 0}
  m_NavMeshLayer: 0
  m_StaticEditorFlags: 0
  m_IsActive: 1
--- !u!23 &1406201966
MeshRenderer:
  m_ObjectHideFlags: 0
  m_PrefabParentObject: {fileID: 0}
  m_PrefabInternal: {fileID: 0}
  m_GameObject: {fileID: 1406201965}
  m_Enabled: 1
  m_CastShadows: 1
  m_ReceiveShadows: 1
  m_DynamicOccludee: 1
  m_MotionVectors: 1
  m_LightProbeUsage: 0
  m_ReflectionProbeUsage: 1
  m_RenderingLayerMask: 4294967295
  m_Materials:
  - {fileID: 2100000, guid: e7ed6772552b9e4488b1398f8282ed3b, type: 2}
  m_StaticBatchInfo:
    firstSubMesh: 0
    subMeshCount: 0
  m_StaticBatchRoot: {fileID: 0}
  m_ProbeAnchor: {fileID: 0}
  m_LightProbeVolumeOverride: {fileID: 0}
  m_ScaleInLightmap: 1
  m_PreserveUVs: 0
  m_IgnoreNormalsForChartDetection: 0
  m_ImportantGI: 0
  m_StitchLightmapSeams: 0
  m_SelectedEditorRenderState: 3
  m_MinimumChartSize: 4
  m_AutoUVMaxDistance: 0.5
  m_AutoUVMaxAngle: 89
  m_LightmapParameters: {fileID: 0}
  m_SortingLayerID: 0
  m_SortingLayer: 0
  m_SortingOrder: 0
--- !u!64 &1406201967
MeshCollider:
  m_ObjectHideFlags: 0
  m_PrefabParentObject: {fileID: 0}
  m_PrefabInternal: {fileID: 0}
  m_GameObject: {fileID: 1406201965}
  m_Material: {fileID: 0}
  m_IsTrigger: 0
  m_Enabled: 1
  serializedVersion: 3
  m_Convex: 0
  m_CookingOptions: 14
  m_SkinWidth: 0.01
  m_Mesh: {fileID: 10209, guid: 0000000000000000e000000000000000, type: 0}
--- !u!33 &1406201968
MeshFilter:
  m_ObjectHideFlags: 0
  m_PrefabParentObject: {fileID: 0}
  m_PrefabInternal: {fileID: 0}
  m_GameObject: {fileID: 1406201965}
  m_Mesh: {fileID: 10209, guid: 0000000000000000e000000000000000, type: 0}
--- !u!4 &1406201969
Transform:
  m_ObjectHideFlags: 0
  m_PrefabParentObject: {fileID: 0}
  m_PrefabInternal: {fileID: 0}
  m_GameObject: {fileID: 1406201965}
  m_LocalRotation: {x: 0, y: 0, z: 0, w: 1}
  m_LocalPosition: {x: 0.15871286, y: -0.062943935, z: -0.114655495}
  m_LocalScale: {x: 1, y: 1, z: 1}
  m_Children: []
  m_Father: {fileID: 0}
  m_RootOrder: 2
  m_LocalEulerAnglesHint: {x: 0, y: 0, z: 0}
--- !u!1 &1540351049
GameObject:
  m_ObjectHideFlags: 0
  m_PrefabParentObject: {fileID: 100082, guid: 8141a1e3f5562ba4d910d6c02d5d213c, type: 3}
  m_PrefabInternal: {fileID: 972882073}
  serializedVersion: 5
  m_Component:
  - component: {fileID: 1540351050}
  - component: {fileID: 1540351051}
  m_Layer: 0
  m_Name: mesh_R_Spine1
  m_TagString: Untagged
  m_Icon: {fileID: 0}
  m_NavMeshLayer: 0
  m_StaticEditorFlags: 0
  m_IsActive: 1
--- !u!4 &1540351050
Transform:
  m_ObjectHideFlags: 0
  m_PrefabParentObject: {fileID: 400082, guid: 8141a1e3f5562ba4d910d6c02d5d213c, type: 3}
  m_PrefabInternal: {fileID: 972882073}
  m_GameObject: {fileID: 1540351049}
  m_LocalRotation: {x: -0.7071068, y: 0, z: -0, w: 0.7071068}
  m_LocalPosition: {x: -0, y: 0, z: 0}
  m_LocalScale: {x: 1, y: 1, z: 1}
  m_Children: []
  m_Father: {fileID: 1237958033}
  m_RootOrder: 15
  m_LocalEulerAnglesHint: {x: 0, y: 0, z: 0}
--- !u!137 &1540351051
SkinnedMeshRenderer:
  m_ObjectHideFlags: 0
  m_PrefabParentObject: {fileID: 13700028, guid: 8141a1e3f5562ba4d910d6c02d5d213c,
    type: 3}
  m_PrefabInternal: {fileID: 972882073}
  m_GameObject: {fileID: 1540351049}
  m_Enabled: 1
  m_CastShadows: 1
  m_ReceiveShadows: 1
  m_DynamicOccludee: 1
  m_MotionVectors: 1
  m_LightProbeUsage: 1
  m_ReflectionProbeUsage: 1
  m_RenderingLayerMask: 4294967295
  m_Materials:
  - {fileID: 2100000, guid: 4bd180b051e2ca54ebfe82cf04ec20a6, type: 2}
  m_StaticBatchInfo:
    firstSubMesh: 0
    subMeshCount: 0
  m_StaticBatchRoot: {fileID: 0}
  m_ProbeAnchor: {fileID: 0}
  m_LightProbeVolumeOverride: {fileID: 0}
  m_ScaleInLightmap: 1
  m_PreserveUVs: 0
  m_IgnoreNormalsForChartDetection: 0
  m_ImportantGI: 0
  m_StitchLightmapSeams: 0
  m_SelectedEditorRenderState: 3
  m_MinimumChartSize: 4
  m_AutoUVMaxDistance: 0.5
  m_AutoUVMaxAngle: 89
  m_LightmapParameters: {fileID: 0}
  m_SortingLayerID: 0
  m_SortingLayer: 0
  m_SortingOrder: 0
  serializedVersion: 2
  m_Quality: 0
  m_UpdateWhenOffscreen: 0
  m_SkinnedMotionVectors: 1
  m_Mesh: {fileID: 4300026, guid: 8141a1e3f5562ba4d910d6c02d5d213c, type: 3}
  m_Bones:
  - {fileID: 628363968}
  - {fileID: 677642972}
  - {fileID: 1989891757}
  - {fileID: 1886528290}
  - {fileID: 25580797}
  - {fileID: 773963775}
  - {fileID: 1548831763}
  - {fileID: 1286607728}
  - {fileID: 924605023}
  m_BlendShapeWeights: []
  m_RootBone: {fileID: 1286607728}
  m_AABB:
    m_Center: {x: -0.4164285, y: 0.054805964, z: -0.03330332}
    m_Extent: {x: 0.2448234, y: 0.18446569, z: 0.2502342}
  m_DirtyAABB: 0
--- !u!1 &1548831762
GameObject:
  m_ObjectHideFlags: 0
  m_PrefabParentObject: {fileID: 100046, guid: 8141a1e3f5562ba4d910d6c02d5d213c, type: 3}
  m_PrefabInternal: {fileID: 972882073}
  serializedVersion: 5
  m_Component:
  - component: {fileID: 1548831763}
  m_Layer: 0
  m_Name: Bip01 R UpperArm
  m_TagString: Untagged
  m_Icon: {fileID: 0}
  m_NavMeshLayer: 0
  m_StaticEditorFlags: 0
  m_IsActive: 1
--- !u!4 &1548831763
Transform:
  m_ObjectHideFlags: 0
  m_PrefabParentObject: {fileID: 400046, guid: 8141a1e3f5562ba4d910d6c02d5d213c, type: 3}
  m_PrefabInternal: {fileID: 972882073}
  m_GameObject: {fileID: 1548831762}
  m_LocalRotation: {x: 0.26976308, y: 0.39129007, z: -0.0050664768, w: 0.8798263}
  m_LocalPosition: {x: -0.1523884, y: 0, z: 0}
  m_LocalScale: {x: 1, y: 1.0000001, z: 1}
  m_Children:
  - {fileID: 1826951993}
  m_Father: {fileID: 1886528290}
  m_RootOrder: 0
  m_LocalEulerAnglesHint: {x: 0, y: 0, z: 0}
--- !u!1 &1614407200
GameObject:
  m_ObjectHideFlags: 0
  m_PrefabParentObject: {fileID: 100062, guid: 8141a1e3f5562ba4d910d6c02d5d213c, type: 3}
  m_PrefabInternal: {fileID: 972882073}
  serializedVersion: 5
  m_Component:
  - component: {fileID: 1614407201}
  - component: {fileID: 1614407202}
  m_Layer: 0
  m_Name: mesh_L_Pelvis
  m_TagString: Untagged
  m_Icon: {fileID: 0}
  m_NavMeshLayer: 0
  m_StaticEditorFlags: 0
  m_IsActive: 1
--- !u!4 &1614407201
Transform:
  m_ObjectHideFlags: 0
  m_PrefabParentObject: {fileID: 400062, guid: 8141a1e3f5562ba4d910d6c02d5d213c, type: 3}
  m_PrefabInternal: {fileID: 972882073}
  m_GameObject: {fileID: 1614407200}
  m_LocalRotation: {x: -0.7071068, y: 0, z: -0, w: 0.7071068}
  m_LocalPosition: {x: -0, y: 0, z: 0}
  m_LocalScale: {x: 1, y: 1, z: 1}
  m_Children: []
  m_Father: {fileID: 1237958033}
  m_RootOrder: 5
  m_LocalEulerAnglesHint: {x: 0, y: 0, z: 0}
--- !u!137 &1614407202
SkinnedMeshRenderer:
  m_ObjectHideFlags: 0
  m_PrefabParentObject: {fileID: 13700008, guid: 8141a1e3f5562ba4d910d6c02d5d213c,
    type: 3}
  m_PrefabInternal: {fileID: 972882073}
  m_GameObject: {fileID: 1614407200}
  m_Enabled: 1
  m_CastShadows: 1
  m_ReceiveShadows: 1
  m_DynamicOccludee: 1
  m_MotionVectors: 1
  m_LightProbeUsage: 1
  m_ReflectionProbeUsage: 1
  m_RenderingLayerMask: 4294967295
  m_Materials:
  - {fileID: 2100000, guid: 4bd180b051e2ca54ebfe82cf04ec20a6, type: 2}
  m_StaticBatchInfo:
    firstSubMesh: 0
    subMeshCount: 0
  m_StaticBatchRoot: {fileID: 0}
  m_ProbeAnchor: {fileID: 0}
  m_LightProbeVolumeOverride: {fileID: 0}
  m_ScaleInLightmap: 1
  m_PreserveUVs: 0
  m_IgnoreNormalsForChartDetection: 0
  m_ImportantGI: 0
  m_StitchLightmapSeams: 0
  m_SelectedEditorRenderState: 3
  m_MinimumChartSize: 4
  m_AutoUVMaxDistance: 0.5
  m_AutoUVMaxAngle: 89
  m_LightmapParameters: {fileID: 0}
  m_SortingLayerID: 0
  m_SortingLayer: 0
  m_SortingOrder: 0
  serializedVersion: 2
  m_Quality: 0
  m_UpdateWhenOffscreen: 0
  m_SkinnedMotionVectors: 1
  m_Mesh: {fileID: 4300022, guid: 8141a1e3f5562ba4d910d6c02d5d213c, type: 3}
  m_Bones:
  - {fileID: 803149524}
  - {fileID: 1842628432}
  - {fileID: 930344351}
  - {fileID: 1286607728}
  - {fileID: 924605023}
  - {fileID: 1794462609}
  - {fileID: 25580797}
  m_BlendShapeWeights: []
  m_RootBone: {fileID: 1794462609}
  m_AABB:
    m_Center: {x: -0.014098145, y: 0.07435523, z: -0.0066568553}
    m_Extent: {x: 0.15752813, y: 0.12882861, z: 0.18410704}
  m_DirtyAABB: 0
--- !u!1 &1648062771
GameObject:
  m_ObjectHideFlags: 0
  m_PrefabParentObject: {fileID: 100038, guid: 8141a1e3f5562ba4d910d6c02d5d213c, type: 3}
  m_PrefabInternal: {fileID: 972882073}
  serializedVersion: 5
  m_Component:
  - component: {fileID: 1648062772}
  m_Layer: 0
  m_Name: Bip01 R Hand
  m_TagString: Untagged
  m_Icon: {fileID: 0}
  m_NavMeshLayer: 0
  m_StaticEditorFlags: 0
  m_IsActive: 1
--- !u!4 &1648062772
Transform:
  m_ObjectHideFlags: 0
  m_PrefabParentObject: {fileID: 400038, guid: 8141a1e3f5562ba4d910d6c02d5d213c, type: 3}
  m_PrefabInternal: {fileID: 972882073}
  m_GameObject: {fileID: 1648062771}
  m_LocalRotation: {x: 0.42405188, y: 0.08525678, z: -0.29964215, w: 0.8503681}
  m_LocalPosition: {x: -0.24035004, y: -0.000000076293944, z: 0}
  m_LocalScale: {x: 1, y: 1, z: 0.99999994}
  m_Children: []
  m_Father: {fileID: 1826951993}
  m_RootOrder: 0
  m_LocalEulerAnglesHint: {x: 0, y: 0, z: 0}
--- !u!1 &1676945941
GameObject:
  m_ObjectHideFlags: 0
  m_PrefabParentObject: {fileID: 100068, guid: 8141a1e3f5562ba4d910d6c02d5d213c, type: 3}
  m_PrefabInternal: {fileID: 972882073}
  serializedVersion: 5
  m_Component:
  - component: {fileID: 1676945942}
  - component: {fileID: 1676945943}
  m_Layer: 0
  m_Name: mesh_L_Thigh
  m_TagString: Untagged
  m_Icon: {fileID: 0}
  m_NavMeshLayer: 0
  m_StaticEditorFlags: 0
  m_IsActive: 1
--- !u!4 &1676945942
Transform:
  m_ObjectHideFlags: 0
  m_PrefabParentObject: {fileID: 400068, guid: 8141a1e3f5562ba4d910d6c02d5d213c, type: 3}
  m_PrefabInternal: {fileID: 972882073}
  m_GameObject: {fileID: 1676945941}
  m_LocalRotation: {x: -0.7071068, y: 0, z: -0, w: 0.7071068}
  m_LocalPosition: {x: -0, y: 0, z: 0}
  m_LocalScale: {x: 1, y: 1, z: 1}
  m_Children: []
  m_Father: {fileID: 1237958033}
  m_RootOrder: 8
  m_LocalEulerAnglesHint: {x: 0, y: 0, z: 0}
--- !u!137 &1676945943
SkinnedMeshRenderer:
  m_ObjectHideFlags: 0
  m_PrefabParentObject: {fileID: 13700014, guid: 8141a1e3f5562ba4d910d6c02d5d213c,
    type: 3}
  m_PrefabInternal: {fileID: 972882073}
  m_GameObject: {fileID: 1676945941}
  m_Enabled: 1
  m_CastShadows: 1
  m_ReceiveShadows: 1
  m_DynamicOccludee: 1
  m_MotionVectors: 1
  m_LightProbeUsage: 1
  m_ReflectionProbeUsage: 1
  m_RenderingLayerMask: 4294967295
  m_Materials:
  - {fileID: 2100000, guid: 4bd180b051e2ca54ebfe82cf04ec20a6, type: 2}
  m_StaticBatchInfo:
    firstSubMesh: 0
    subMeshCount: 0
  m_StaticBatchRoot: {fileID: 0}
  m_ProbeAnchor: {fileID: 0}
  m_LightProbeVolumeOverride: {fileID: 0}
  m_ScaleInLightmap: 1
  m_PreserveUVs: 0
  m_IgnoreNormalsForChartDetection: 0
  m_ImportantGI: 0
  m_StitchLightmapSeams: 0
  m_SelectedEditorRenderState: 3
  m_MinimumChartSize: 4
  m_AutoUVMaxDistance: 0.5
  m_AutoUVMaxAngle: 89
  m_LightmapParameters: {fileID: 0}
  m_SortingLayerID: 0
  m_SortingLayer: 0
  m_SortingOrder: 0
  serializedVersion: 2
  m_Quality: 0
  m_UpdateWhenOffscreen: 0
  m_SkinnedMotionVectors: 1
  m_Mesh: {fileID: 4300016, guid: 8141a1e3f5562ba4d910d6c02d5d213c, type: 3}
  m_Bones:
  - {fileID: 803149524}
  - {fileID: 1842628432}
  - {fileID: 1286607728}
  - {fileID: 930344351}
  - {fileID: 2056959197}
  - {fileID: 1794462609}
  m_BlendShapeWeights: []
  m_RootBone: {fileID: 1794462609}
  m_AABB:
    m_Center: {x: -0.13263129, y: 0.10954511, z: -0.14491981}
    m_Extent: {x: 0.23308922, y: 0.12976184, z: 0.25435504}
  m_DirtyAABB: 0
--- !u!1 &1680548438
GameObject:
  m_ObjectHideFlags: 0
  m_PrefabParentObject: {fileID: 100006, guid: 8141a1e3f5562ba4d910d6c02d5d213c, type: 3}
  m_PrefabInternal: {fileID: 972882073}
  serializedVersion: 5
  m_Component:
  - component: {fileID: 1680548439}
  m_Layer: 0
  m_Name: Bip01 HeadNub
  m_TagString: Untagged
  m_Icon: {fileID: 0}
  m_NavMeshLayer: 0
  m_StaticEditorFlags: 0
  m_IsActive: 1
--- !u!4 &1680548439
Transform:
  m_ObjectHideFlags: 0
  m_PrefabParentObject: {fileID: 400006, guid: 8141a1e3f5562ba4d910d6c02d5d213c, type: 3}
  m_PrefabInternal: {fileID: 972882073}
  m_GameObject: {fileID: 1680548438}
  m_LocalRotation: {x: -2.7755582e-17, y: 0.0000000037252907, z: 0.0000000074505815,
    w: 1}
  m_LocalPosition: {x: -0.18827407, y: 0.000000038146972, z: 0.000000009536743}
  m_LocalScale: {x: 0.9999999, y: 0.9999999, z: 0.99999994}
  m_Children: []
  m_Father: {fileID: 628363968}
  m_RootOrder: 0
  m_LocalEulerAnglesHint: {x: 0, y: 0, z: 0}
--- !u!1 &1726514560
GameObject:
  m_ObjectHideFlags: 0
  m_PrefabParentObject: {fileID: 100054, guid: 8141a1e3f5562ba4d910d6c02d5d213c, type: 3}
  m_PrefabInternal: {fileID: 972882073}
  serializedVersion: 5
  m_Component:
  - component: {fileID: 1726514561}
  - component: {fileID: 1726514562}
  m_Layer: 0
  m_Name: mesh_Head
  m_TagString: Untagged
  m_Icon: {fileID: 0}
  m_NavMeshLayer: 0
  m_StaticEditorFlags: 0
  m_IsActive: 1
--- !u!4 &1726514561
Transform:
  m_ObjectHideFlags: 0
  m_PrefabParentObject: {fileID: 400054, guid: 8141a1e3f5562ba4d910d6c02d5d213c, type: 3}
  m_PrefabInternal: {fileID: 972882073}
  m_GameObject: {fileID: 1726514560}
  m_LocalRotation: {x: -0.7071068, y: 0, z: -0, w: 0.7071068}
  m_LocalPosition: {x: -0, y: 0, z: 0}
  m_LocalScale: {x: 1, y: 1, z: 1}
  m_Children: []
  m_Father: {fileID: 1237958033}
  m_RootOrder: 1
  m_LocalEulerAnglesHint: {x: 0, y: 0, z: 0}
--- !u!137 &1726514562
SkinnedMeshRenderer:
  m_ObjectHideFlags: 0
  m_PrefabParentObject: {fileID: 13700000, guid: 8141a1e3f5562ba4d910d6c02d5d213c,
    type: 3}
  m_PrefabInternal: {fileID: 972882073}
  m_GameObject: {fileID: 1726514560}
  m_Enabled: 1
  m_CastShadows: 1
  m_ReceiveShadows: 1
  m_DynamicOccludee: 1
  m_MotionVectors: 1
  m_LightProbeUsage: 1
  m_ReflectionProbeUsage: 1
  m_RenderingLayerMask: 4294967295
  m_Materials:
  - {fileID: 2100000, guid: 4bd180b051e2ca54ebfe82cf04ec20a6, type: 2}
  m_StaticBatchInfo:
    firstSubMesh: 0
    subMeshCount: 0
  m_StaticBatchRoot: {fileID: 0}
  m_ProbeAnchor: {fileID: 0}
  m_LightProbeVolumeOverride: {fileID: 0}
  m_ScaleInLightmap: 1
  m_PreserveUVs: 0
  m_IgnoreNormalsForChartDetection: 0
  m_ImportantGI: 0
  m_StitchLightmapSeams: 0
  m_SelectedEditorRenderState: 3
  m_MinimumChartSize: 4
  m_AutoUVMaxDistance: 0.5
  m_AutoUVMaxAngle: 89
  m_LightmapParameters: {fileID: 0}
  m_SortingLayerID: 0
  m_SortingLayer: 0
  m_SortingOrder: 0
  serializedVersion: 2
  m_Quality: 0
  m_UpdateWhenOffscreen: 0
  m_SkinnedMotionVectors: 1
  m_Mesh: {fileID: 4300004, guid: 8141a1e3f5562ba4d910d6c02d5d213c, type: 3}
  m_Bones:
  - {fileID: 628363968}
  - {fileID: 1989891757}
  - {fileID: 25580797}
  - {fileID: 773963775}
  - {fileID: 677642972}
  - {fileID: 1886528290}
  - {fileID: 924605023}
  - {fileID: 1548831763}
  m_BlendShapeWeights: []
  m_RootBone: {fileID: 25580797}
  m_AABB:
    m_Center: {x: -0.41428918, y: 0.08517656, z: -0.006375335}
    m_Extent: {x: 0.17660363, y: 0.15523526, z: 0.108308285}
  m_DirtyAABB: 0
--- !u!1 &1794462608
GameObject:
  m_ObjectHideFlags: 0
  m_PrefabParentObject: {fileID: 100000, guid: 8141a1e3f5562ba4d910d6c02d5d213c, type: 3}
  m_PrefabInternal: {fileID: 972882073}
  serializedVersion: 5
  m_Component:
  - component: {fileID: 1794462609}
  m_Layer: 0
  m_Name: Bip01
  m_TagString: Untagged
  m_Icon: {fileID: 0}
  m_NavMeshLayer: 0
  m_StaticEditorFlags: 0
  m_IsActive: 1
--- !u!4 &1794462609
Transform:
  m_ObjectHideFlags: 0
  m_PrefabParentObject: {fileID: 400000, guid: 8141a1e3f5562ba4d910d6c02d5d213c, type: 3}
  m_PrefabInternal: {fileID: 972882073}
  m_GameObject: {fileID: 1794462608}
  m_LocalRotation: {x: -0.45451984, y: 0.45451912, z: 0.5416749, w: 0.5416755}
  m_LocalPosition: {x: -0, y: 0.8248456, z: 0.14795521}
  m_LocalScale: {x: 1, y: 1, z: 1}
  m_Children:
  - {fileID: 1870049663}
  - {fileID: 1842628432}
  m_Father: {fileID: 1237958033}
  m_RootOrder: 0
  m_LocalEulerAnglesHint: {x: 0, y: 0, z: 0}
--- !u!1 &1812061777
GameObject:
  m_ObjectHideFlags: 0
  m_PrefabParentObject: {fileID: 100086, guid: 8141a1e3f5562ba4d910d6c02d5d213c, type: 3}
  m_PrefabInternal: {fileID: 972882073}
  serializedVersion: 5
  m_Component:
  - component: {fileID: 1812061778}
  - component: {fileID: 1812061779}
  m_Layer: 0
  m_Name: mesh_R_UpperArm
  m_TagString: Untagged
  m_Icon: {fileID: 0}
  m_NavMeshLayer: 0
  m_StaticEditorFlags: 0
  m_IsActive: 1
--- !u!4 &1812061778
Transform:
  m_ObjectHideFlags: 0
  m_PrefabParentObject: {fileID: 400086, guid: 8141a1e3f5562ba4d910d6c02d5d213c, type: 3}
  m_PrefabInternal: {fileID: 972882073}
  m_GameObject: {fileID: 1812061777}
  m_LocalRotation: {x: -0.7071068, y: 0, z: -0, w: 0.7071068}
  m_LocalPosition: {x: -0, y: 0, z: 0}
  m_LocalScale: {x: 1, y: 1, z: 1}
  m_Children: []
  m_Father: {fileID: 1237958033}
  m_RootOrder: 17
  m_LocalEulerAnglesHint: {x: 0, y: 0, z: 0}
--- !u!137 &1812061779
SkinnedMeshRenderer:
  m_ObjectHideFlags: 0
  m_PrefabParentObject: {fileID: 13700032, guid: 8141a1e3f5562ba4d910d6c02d5d213c,
    type: 3}
  m_PrefabInternal: {fileID: 972882073}
  m_GameObject: {fileID: 1812061777}
  m_Enabled: 1
  m_CastShadows: 1
  m_ReceiveShadows: 1
  m_DynamicOccludee: 1
  m_MotionVectors: 1
  m_LightProbeUsage: 1
  m_ReflectionProbeUsage: 1
  m_RenderingLayerMask: 4294967295
  m_Materials:
  - {fileID: 2100000, guid: 4bd180b051e2ca54ebfe82cf04ec20a6, type: 2}
  m_StaticBatchInfo:
    firstSubMesh: 0
    subMeshCount: 0
  m_StaticBatchRoot: {fileID: 0}
  m_ProbeAnchor: {fileID: 0}
  m_LightProbeVolumeOverride: {fileID: 0}
  m_ScaleInLightmap: 1
  m_PreserveUVs: 0
  m_IgnoreNormalsForChartDetection: 0
  m_ImportantGI: 0
  m_StitchLightmapSeams: 0
  m_SelectedEditorRenderState: 3
  m_MinimumChartSize: 4
  m_AutoUVMaxDistance: 0.5
  m_AutoUVMaxAngle: 89
  m_LightmapParameters: {fileID: 0}
  m_SortingLayerID: 0
  m_SortingLayer: 0
  m_SortingOrder: 0
  serializedVersion: 2
  m_Quality: 0
  m_UpdateWhenOffscreen: 0
  m_SkinnedMotionVectors: 1
  m_Mesh: {fileID: 4300028, guid: 8141a1e3f5562ba4d910d6c02d5d213c, type: 3}
  m_Bones:
  - {fileID: 1886528290}
  - {fileID: 1548831763}
  - {fileID: 25580797}
  - {fileID: 1286607728}
  - {fileID: 1826951993}
  - {fileID: 628363968}
  - {fileID: 677642972}
  m_BlendShapeWeights: []
  m_RootBone: {fileID: 1286607728}
  m_AABB:
    m_Center: {x: -0.36419564, y: 0.040139407, z: -0.2413379}
    m_Extent: {x: 0.2097243, y: 0.119928256, z: 0.18501407}
  m_DirtyAABB: 0
--- !u!1 &1826951992
GameObject:
  m_ObjectHideFlags: 0
  m_PrefabParentObject: {fileID: 100036, guid: 8141a1e3f5562ba4d910d6c02d5d213c, type: 3}
  m_PrefabInternal: {fileID: 972882073}
  serializedVersion: 5
  m_Component:
  - component: {fileID: 1826951993}
  m_Layer: 0
  m_Name: Bip01 R Forearm
  m_TagString: Untagged
  m_Icon: {fileID: 0}
  m_NavMeshLayer: 0
  m_StaticEditorFlags: 0
  m_IsActive: 1
--- !u!4 &1826951993
Transform:
  m_ObjectHideFlags: 0
  m_PrefabParentObject: {fileID: 400036, guid: 8141a1e3f5562ba4d910d6c02d5d213c, type: 3}
  m_PrefabInternal: {fileID: 972882073}
  m_GameObject: {fileID: 1826951992}
  m_LocalRotation: {x: 0.000000027915325, y: 0.000000041457643, z: 0.49213135, w: 0.87052095}
  m_LocalPosition: {x: -0.31570113, y: -0.000000038146972, z: 0}
  m_LocalScale: {x: 1, y: 1.0000001, z: 1}
  m_Children:
  - {fileID: 1648062772}
  m_Father: {fileID: 1548831763}
  m_RootOrder: 0
  m_LocalEulerAnglesHint: {x: 0, y: 0, z: 0}
--- !u!1 &1842628431
GameObject:
  m_ObjectHideFlags: 0
  m_PrefabParentObject: {fileID: 100028, guid: 8141a1e3f5562ba4d910d6c02d5d213c, type: 3}
  m_PrefabInternal: {fileID: 972882073}
  serializedVersion: 5
  m_Component:
  - component: {fileID: 1842628432}
  m_Layer: 0
  m_Name: Bip01 Pelvis
  m_TagString: Untagged
  m_Icon: {fileID: 0}
  m_NavMeshLayer: 0
  m_StaticEditorFlags: 0
  m_IsActive: 1
--- !u!4 &1842628432
Transform:
  m_ObjectHideFlags: 0
  m_PrefabParentObject: {fileID: 400028, guid: 8141a1e3f5562ba4d910d6c02d5d213c, type: 3}
  m_PrefabInternal: {fileID: 972882073}
  m_GameObject: {fileID: 1842628431}
  m_LocalRotation: {x: -0.49999964, y: 0.50000036, z: 0.49999964, w: 0.50000036}
  m_LocalPosition: {x: -0, y: 0, z: 0}
  m_LocalScale: {x: 1, y: 1, z: 1}
  m_Children:
  - {fileID: 1286607728}
  m_Father: {fileID: 1794462609}
  m_RootOrder: 1
  m_LocalEulerAnglesHint: {x: 0, y: 0, z: 0}
--- !u!1 &1851016803
GameObject:
  m_ObjectHideFlags: 0
  m_PrefabParentObject: {fileID: 0}
  m_PrefabInternal: {fileID: 0}
  serializedVersion: 5
  m_Component:
  - component: {fileID: 1851016805}
  - component: {fileID: 1851016804}
  m_Layer: 0
  m_Name: Directional light2
  m_TagString: Untagged
  m_Icon: {fileID: 0}
  m_NavMeshLayer: 0
  m_StaticEditorFlags: 0
  m_IsActive: 1
--- !u!108 &1851016804
Light:
  m_ObjectHideFlags: 0
  m_PrefabParentObject: {fileID: 0}
  m_PrefabInternal: {fileID: 0}
  m_GameObject: {fileID: 1851016803}
  m_Enabled: 1
  serializedVersion: 8
  m_Type: 1
  m_Color: {r: 0.5808935, g: 0.6102941, b: 0.4981077, a: 1}
  m_Intensity: 1.1
  m_Range: 10
  m_SpotAngle: 30
  m_CookieSize: 10
  m_Shadows:
    m_Type: 0
    m_Resolution: -1
    m_CustomResolution: -1
    m_Strength: 1
    m_Bias: 0.05
    m_NormalBias: 0.4
    m_NearPlane: 0.2
  m_Cookie: {fileID: 0}
  m_DrawHalo: 0
  m_Flare: {fileID: 0}
  m_RenderMode: 0
  m_CullingMask:
    serializedVersion: 2
    m_Bits: 4294967295
  m_Lightmapping: 1
  m_AreaSize: {x: 1, y: 1}
  m_BounceIntensity: 1
  m_ColorTemperature: 6570
  m_UseColorTemperature: 0
  m_ShadowRadius: 0
  m_ShadowAngle: 0
--- !u!4 &1851016805
Transform:
  m_ObjectHideFlags: 0
  m_PrefabParentObject: {fileID: 0}
  m_PrefabInternal: {fileID: 0}
  m_GameObject: {fileID: 1851016803}
  m_LocalRotation: {x: 0.47514123, y: 0.22534095, z: 0.12731372, w: -0.8409837}
  m_LocalPosition: {x: -0.7014364, y: 2.7202275, z: 1.247432}
  m_LocalScale: {x: 1, y: 1, z: 1}
  m_Children: []
  m_Father: {fileID: 0}
  m_RootOrder: 4
  m_LocalEulerAnglesHint: {x: 0, y: 0, z: 0}
--- !u!1 &1870049662
GameObject:
  m_ObjectHideFlags: 0
  m_PrefabParentObject: {fileID: 100002, guid: 8141a1e3f5562ba4d910d6c02d5d213c, type: 3}
  m_PrefabInternal: {fileID: 972882073}
  serializedVersion: 5
  m_Component:
  - component: {fileID: 1870049663}
  m_Layer: 0
  m_Name: Bip01 Footsteps
  m_TagString: Untagged
  m_Icon: {fileID: 0}
  m_NavMeshLayer: 0
  m_StaticEditorFlags: 0
  m_IsActive: 1
--- !u!4 &1870049663
Transform:
  m_ObjectHideFlags: 0
  m_PrefabParentObject: {fileID: 400002, guid: 8141a1e3f5562ba4d910d6c02d5d213c, type: 3}
  m_PrefabInternal: {fileID: 972882073}
  m_GameObject: {fileID: 1870049662}
  m_LocalRotation: {x: -0.06162838, y: 0.061628457, z: -0.70441556, w: 0.7044165}
  m_LocalPosition: {x: -0.14383285, y: -2.0387232e-10, z: -0.81571674}
  m_LocalScale: {x: 1, y: 1, z: 1}
  m_Children: []
  m_Father: {fileID: 1794462609}
  m_RootOrder: 0
  m_LocalEulerAnglesHint: {x: 0, y: 0, z: 0}
--- !u!1 &1876124255
GameObject:
  m_ObjectHideFlags: 0
  m_PrefabParentObject: {fileID: 100060, guid: 8141a1e3f5562ba4d910d6c02d5d213c, type: 3}
  m_PrefabInternal: {fileID: 972882073}
  serializedVersion: 5
  m_Component:
  - component: {fileID: 1876124256}
  - component: {fileID: 1876124257}
  m_Layer: 0
  m_Name: mesh_L_Hand
  m_TagString: Untagged
  m_Icon: {fileID: 0}
  m_NavMeshLayer: 0
  m_StaticEditorFlags: 0
  m_IsActive: 1
--- !u!4 &1876124256
Transform:
  m_ObjectHideFlags: 0
  m_PrefabParentObject: {fileID: 400060, guid: 8141a1e3f5562ba4d910d6c02d5d213c, type: 3}
  m_PrefabInternal: {fileID: 972882073}
  m_GameObject: {fileID: 1876124255}
  m_LocalRotation: {x: -0.7071068, y: 0, z: -0, w: 0.7071068}
  m_LocalPosition: {x: -0, y: 0, z: 0}
  m_LocalScale: {x: 1, y: 1, z: 1}
  m_Children: []
  m_Father: {fileID: 1237958033}
  m_RootOrder: 4
  m_LocalEulerAnglesHint: {x: 0, y: 0, z: 0}
--- !u!137 &1876124257
SkinnedMeshRenderer:
  m_ObjectHideFlags: 0
  m_PrefabParentObject: {fileID: 13700006, guid: 8141a1e3f5562ba4d910d6c02d5d213c,
    type: 3}
  m_PrefabInternal: {fileID: 972882073}
  m_GameObject: {fileID: 1876124255}
  m_Enabled: 1
  m_CastShadows: 1
  m_ReceiveShadows: 1
  m_DynamicOccludee: 1
  m_MotionVectors: 1
  m_LightProbeUsage: 1
  m_ReflectionProbeUsage: 1
  m_RenderingLayerMask: 4294967295
  m_Materials:
  - {fileID: 2100000, guid: 4bd180b051e2ca54ebfe82cf04ec20a6, type: 2}
  m_StaticBatchInfo:
    firstSubMesh: 0
    subMeshCount: 0
  m_StaticBatchRoot: {fileID: 0}
  m_ProbeAnchor: {fileID: 0}
  m_LightProbeVolumeOverride: {fileID: 0}
  m_ScaleInLightmap: 1
  m_PreserveUVs: 0
  m_IgnoreNormalsForChartDetection: 0
  m_ImportantGI: 0
  m_StitchLightmapSeams: 0
  m_SelectedEditorRenderState: 3
  m_MinimumChartSize: 4
  m_AutoUVMaxDistance: 0.5
  m_AutoUVMaxAngle: 89
  m_LightmapParameters: {fileID: 0}
  m_SortingLayerID: 0
  m_SortingLayer: 0
  m_SortingOrder: 0
  serializedVersion: 2
  m_Quality: 0
  m_UpdateWhenOffscreen: 0
  m_SkinnedMotionVectors: 1
  m_Mesh: {fileID: 4300006, guid: 8141a1e3f5562ba4d910d6c02d5d213c, type: 3}
  m_Bones:
  - {fileID: 1102786649}
  - {fileID: 546541881}
  - {fileID: 924605023}
  m_BlendShapeWeights: []
  m_RootBone: {fileID: 924605023}
  m_AABB:
    m_Center: {x: -0.54220724, y: -0.20324832, z: -0.053373083}
    m_Extent: {x: 0.14616488, y: 0.116730034, z: 0.12854913}
  m_DirtyAABB: 0
--- !u!1 &1886528289
GameObject:
  m_ObjectHideFlags: 0
  m_PrefabParentObject: {fileID: 100032, guid: 8141a1e3f5562ba4d910d6c02d5d213c, type: 3}
  m_PrefabInternal: {fileID: 972882073}
  serializedVersion: 5
  m_Component:
  - component: {fileID: 1886528290}
  m_Layer: 0
  m_Name: Bip01 R Clavicle
  m_TagString: Untagged
  m_Icon: {fileID: 0}
  m_NavMeshLayer: 0
  m_StaticEditorFlags: 0
  m_IsActive: 1
--- !u!4 &1886528290
Transform:
  m_ObjectHideFlags: 0
  m_PrefabParentObject: {fileID: 400032, guid: 8141a1e3f5562ba4d910d6c02d5d213c, type: 3}
  m_PrefabInternal: {fileID: 972882073}
  m_GameObject: {fileID: 1886528289}
  m_LocalRotation: {x: 0.57403994, y: 0.2590004, z: 0.7080522, w: -0.3194668}
  m_LocalPosition: {x: -0.000000076293944, y: 0.00010040283, z: -0.028040813}
  m_LocalScale: {x: 1.0000001, y: 1, z: 1}
  m_Children:
  - {fileID: 1548831763}
  m_Father: {fileID: 1989891757}
  m_RootOrder: 2
  m_LocalEulerAnglesHint: {x: 0, y: 0, z: 0}
--- !u!1 &1919130724
GameObject:
  m_ObjectHideFlags: 0
  m_PrefabParentObject: {fileID: 100044, guid: 8141a1e3f5562ba4d910d6c02d5d213c, type: 3}
  m_PrefabInternal: {fileID: 972882073}
  serializedVersion: 5
  m_Component:
  - component: {fileID: 1919130725}
  m_Layer: 0
  m_Name: Bip01 R Toe0Nub
  m_TagString: Untagged
  m_Icon: {fileID: 0}
  m_NavMeshLayer: 0
  m_StaticEditorFlags: 0
  m_IsActive: 1
--- !u!4 &1919130725
Transform:
  m_ObjectHideFlags: 0
  m_PrefabParentObject: {fileID: 400044, guid: 8141a1e3f5562ba4d910d6c02d5d213c, type: 3}
  m_PrefabInternal: {fileID: 972882073}
  m_GameObject: {fileID: 1919130724}
  m_LocalRotation: {x: 0.0000000018626449, y: -0.0000000012951205, z: -2.3283064e-10,
    w: 1}
  m_LocalPosition: {x: -0.037750624, y: 0.0000000011920929, z: 0}
  m_LocalScale: {x: 1, y: 1.0000001, z: 1}
  m_Children: []
  m_Father: {fileID: 2132193292}
  m_RootOrder: 0
  m_LocalEulerAnglesHint: {x: 0, y: 0, z: 0}
--- !u!1 &1989891756
GameObject:
  m_ObjectHideFlags: 0
  m_PrefabParentObject: {fileID: 100026, guid: 8141a1e3f5562ba4d910d6c02d5d213c, type: 3}
  m_PrefabInternal: {fileID: 972882073}
  serializedVersion: 5
  m_Component:
  - component: {fileID: 1989891757}
  m_Layer: 0
  m_Name: Bip01 Neck
  m_TagString: Untagged
  m_Icon: {fileID: 0}
  m_NavMeshLayer: 0
  m_StaticEditorFlags: 0
  m_IsActive: 1
--- !u!4 &1989891757
Transform:
  m_ObjectHideFlags: 0
  m_PrefabParentObject: {fileID: 400026, guid: 8141a1e3f5562ba4d910d6c02d5d213c, type: 3}
  m_PrefabInternal: {fileID: 972882073}
  m_GameObject: {fileID: 1989891756}
  m_LocalRotation: {x: 0.000000013352525, y: 0.0000011447545, z: -0.41090375, w: 0.91167873}
  m_LocalPosition: {x: -0.25273377, y: -0.00006652832, z: -0.0000000047683715}
  m_LocalScale: {x: 0.99999994, y: 1, z: 1}
  m_Children:
  - {fileID: 628363968}
  - {fileID: 677642972}
  - {fileID: 1886528290}
  m_Father: {fileID: 25580797}
  m_RootOrder: 0
  m_LocalEulerAnglesHint: {x: 0, y: 0, z: 0}
--- !u!1 &2014092402
GameObject:
  m_ObjectHideFlags: 0
  m_PrefabParentObject: {fileID: 0}
  m_PrefabInternal: {fileID: 0}
  serializedVersion: 5
  m_Component:
  - component: {fileID: 2014092404}
  - component: {fileID: 2014092403}
  m_Layer: 0
  m_Name: Directional light
  m_TagString: Untagged
  m_Icon: {fileID: 0}
  m_NavMeshLayer: 0
  m_StaticEditorFlags: 0
  m_IsActive: 1
--- !u!108 &2014092403
Light:
  m_ObjectHideFlags: 0
  m_PrefabParentObject: {fileID: 0}
  m_PrefabInternal: {fileID: 0}
  m_GameObject: {fileID: 2014092402}
  m_Enabled: 1
  serializedVersion: 8
  m_Type: 1
  m_Color: {r: 1, g: 1, b: 1, a: 1}
  m_Intensity: 0.94
  m_Range: 10
  m_SpotAngle: 30
  m_CookieSize: 10
  m_Shadows:
    m_Type: 0
    m_Resolution: -1
    m_CustomResolution: -1
    m_Strength: 1
    m_Bias: 0.05
    m_NormalBias: 0.4
    m_NearPlane: 0.2
  m_Cookie: {fileID: 0}
  m_DrawHalo: 0
  m_Flare: {fileID: 0}
  m_RenderMode: 0
  m_CullingMask:
    serializedVersion: 2
    m_Bits: 4294967295
  m_Lightmapping: 1
  m_AreaSize: {x: 1, y: 1}
  m_BounceIntensity: 1
  m_ColorTemperature: 6570
  m_UseColorTemperature: 0
  m_ShadowRadius: 0
  m_ShadowAngle: 0
--- !u!4 &2014092404
Transform:
  m_ObjectHideFlags: 0
  m_PrefabParentObject: {fileID: 0}
  m_PrefabInternal: {fileID: 0}
  m_GameObject: {fileID: 2014092402}
  m_LocalRotation: {x: 0.86352795, y: -0.115973495, z: 0.23138162, w: 0.43281895}
  m_LocalPosition: {x: -0.7014364, y: 2.7202275, z: 1.247432}
  m_LocalScale: {x: 1, y: 1, z: 1}
  m_Children: []
  m_Father: {fileID: 0}
  m_RootOrder: 3
  m_LocalEulerAnglesHint: {x: 0, y: 0, z: 0}
--- !u!1 &2056959196
GameObject:
  m_ObjectHideFlags: 0
  m_PrefabParentObject: {fileID: 100008, guid: 8141a1e3f5562ba4d910d6c02d5d213c, type: 3}
  m_PrefabInternal: {fileID: 972882073}
  serializedVersion: 5
  m_Component:
  - component: {fileID: 2056959197}
  m_Layer: 0
  m_Name: Bip01 L Calf
  m_TagString: Untagged
  m_Icon: {fileID: 0}
  m_NavMeshLayer: 0
  m_StaticEditorFlags: 0
  m_IsActive: 1
--- !u!4 &2056959197
Transform:
  m_ObjectHideFlags: 0
  m_PrefabParentObject: {fileID: 400008, guid: 8141a1e3f5562ba4d910d6c02d5d213c, type: 3}
  m_PrefabInternal: {fileID: 972882073}
  m_GameObject: {fileID: 2056959196}
  m_LocalRotation: {x: -0.0000000059303398, y: 0.0000000061068994, z: 0.2627631, w: 0.9648604}
  m_LocalPosition: {x: -0.40058425, y: 0, z: 0}
  m_LocalScale: {x: 1.0000001, y: 1.0000001, z: 1.0000001}
  m_Children:
  - {fileID: 1346077169}
  m_Father: {fileID: 803149524}
  m_RootOrder: 0
  m_LocalEulerAnglesHint: {x: 0, y: 0, z: 0}
--- !u!1 &2108438607
GameObject:
  m_ObjectHideFlags: 0
  m_PrefabParentObject: {fileID: 100020, guid: 8141a1e3f5562ba4d910d6c02d5d213c, type: 3}
  m_PrefabInternal: {fileID: 972882073}
  serializedVersion: 5
  m_Component:
  - component: {fileID: 2108438608}
  m_Layer: 0
  m_Name: Bip01 L Toe0
  m_TagString: Untagged
  m_Icon: {fileID: 0}
  m_NavMeshLayer: 0
  m_StaticEditorFlags: 0
  m_IsActive: 1
--- !u!4 &2108438608
Transform:
  m_ObjectHideFlags: 0
  m_PrefabParentObject: {fileID: 400020, guid: 8141a1e3f5562ba4d910d6c02d5d213c, type: 3}
  m_PrefabInternal: {fileID: 972882073}
  m_GameObject: {fileID: 2108438607}
  m_LocalRotation: {x: 0.037410825, y: -0.05338168, z: -0.7404164, w: 0.6689802}
  m_LocalPosition: {x: -0.092134334, y: 0.11857254, z: 0.000000009536743}
  m_LocalScale: {x: 0.9999999, y: 0.99999994, z: 0.99999994}
  m_Children:
  - {fileID: 1372993510}
  m_Father: {fileID: 1346077169}
  m_RootOrder: 0
  m_LocalEulerAnglesHint: {x: 0, y: 0, z: 0}
--- !u!1 &2132193291
GameObject:
  m_ObjectHideFlags: 0
  m_PrefabParentObject: {fileID: 100042, guid: 8141a1e3f5562ba4d910d6c02d5d213c, type: 3}
  m_PrefabInternal: {fileID: 972882073}
  serializedVersion: 5
  m_Component:
  - component: {fileID: 2132193292}
  m_Layer: 0
  m_Name: Bip01 R Toe0
  m_TagString: Untagged
  m_Icon: {fileID: 0}
  m_NavMeshLayer: 0
  m_StaticEditorFlags: 0
  m_IsActive: 1
--- !u!4 &2132193292
Transform:
  m_ObjectHideFlags: 0
  m_PrefabParentObject: {fileID: 400042, guid: 8141a1e3f5562ba4d910d6c02d5d213c, type: 3}
  m_PrefabInternal: {fileID: 972882073}
  m_GameObject: {fileID: 2132193291}
  m_LocalRotation: {x: -0.042553414, y: 0.06072482, z: -0.71066666, w: 0.69961035}
  m_LocalPosition: {x: -0.09213436, y: 0.118572555, z: 0}
  m_LocalScale: {x: 1.0000001, y: 1.0000001, z: 1.0000001}
  m_Children:
  - {fileID: 1919130725}
  m_Father: {fileID: 127540368}
  m_RootOrder: 0
  m_LocalEulerAnglesHint: {x: 0, y: 0, z: 0}
